tb/f1_program/f1.vcd
$version Generated by VerilatedVcd $end
$date Tue Dec 10 19:10:03 2024 $end
$timescale 1ps $end

 $scope module TOP $end
  $var wire 32 i a0 [31:0] $end
  $var wire  4 j a1 [3:0] $end
  $var wire  1 f clk $end
  $var wire  1 g rst $end
  $var wire  1 h trigger $end
  $scope module f1 $end
   $var wire 32 o DATA_WIDTH [31:0] $end
   $var wire 32 i a0 [31:0] $end
   $var wire  4 j a1 [3:0] $end
   $var wire  1 f clk $end
   $var wire  1 $ delayed_clk $end
   $var wire  1 p en $end
   $var wire  1 g rst $end
   $var wire  1 h trigger $end
   $var wire  1 # triggerRst $end
   $scope module clkdiv $end
    $var wire  1 f clkin $end
    $var wire  1 $ clkout $end
    $var wire  8 % count [7:0] $end
    $var wire  8 q delay [7:0] $end
    $var wire  1 g rst $end
   $upscope $end
   $scope module lfsr $end
    $var wire  1 f clk $end
    $var wire  4 j data_out [3:0] $end
    $var wire  1 p en $end
    $var wire  1 g rst $end
    $var wire  4 & sreg [4:1] $end
   $upscope $end
   $scope module top $end
    $var wire 32 o ADDR_WIDTH [31:0] $end
    $var wire 32 o DATA_WIDTH [31:0] $end
    $var wire 32 o INSTR_WIDTH [31:0] $end
    $var wire 32 r MEM_ADDR_WIDTH [31:0] $end
    $var wire 32 t OFFSET [31:0] $end
    $var wire 32 s REG_DATA_WIDTH [31:0] $end
    $var wire 32 i a0 [31:0] $end
    $var wire  3 * aluControl [2:0] $end
    $var wire 32 1 aluResult [31:0] $end
    $var wire  1 + aluSrc $end
    $var wire 32 n branchPC [31:0] $end
    $var wire  1 $ clk $end
    $var wire 32 ( immOp [31:0] $end
    $var wire  2 , immSrc [1:0] $end
    $var wire 32 = incPC [31:0] $end
    $var wire 32 : instr [31:0] $end
    $var wire  1 - jalrSrc $end
    $var wire  1 . jumpSrc $end
    $var wire  1 3 memWrite $end
    $var wire 32 m nextPC [31:0] $end
    $var wire 32 9 pc [31:0] $end
    $var wire  1 / pcSrc $end
    $var wire 32 4 readData [31:0] $end
    $var wire 32 < regOp2 [31:0] $end
    $var wire  1 ) regWrite $end
    $var wire 32 5 result [31:0] $end
    $var wire  1 2 resultSrc $end
    $var wire  1 g rst $end
    $var wire 32 ; srcA [31:0] $end
    $var wire 32 0 srcB [31:0] $end
    $var wire  1 # trigger $end
    $var wire 32 k wd3 [31:0] $end
    $var wire  1 l zero $end
    $scope module alu $end
     $var wire 32 o DATA_WIDTH [31:0] $end
     $var wire  3 * aluControl [2:0] $end
     $var wire 32 1 aluResult [31:0] $end
     $var wire 32 ; srcA [31:0] $end
     $var wire 32 0 srcB [31:0] $end
    $upscope $end
    $scope module aluMux $end
     $var wire 32 o DATA_WIDTH [31:0] $end
     $var wire  1 + aluSrc $end
     $var wire 32 ( immOp [31:0] $end
     $var wire 32 < regOp2 [31:0] $end
     $var wire 32 0 srcB [31:0] $end
    $upscope $end
    $scope module branchUnit $end
     $var wire 32 o DATA_WIDTH [31:0] $end
     $var wire  3 * aluControl [2:0] $end
     $var wire 32 ; srcA [31:0] $end
     $var wire 32 < srcB [31:0] $end
     $var wire  1 l zero $end
    $upscope $end
    $scope module controlUnit $end
     $var wire  3 * aluControl [2:0] $end
     $var wire  2 6 aluOp [1:0] $end
     $var wire  1 + aluSrc $end
     $var wire  3 ? funct3 [2:0] $end
     $var wire  1 @ funct7 $end
     $var wire  2 , immSrc [1:0] $end
     $var wire  1 - jalrSrc $end
     $var wire  1 . jumpSrc $end
     $var wire  1 3 memWrite $end
     $var wire  7 > op [6:0] $end
     $var wire  1 / pcSrc $end
     $var wire  1 ) regWrite $end
     $var wire  1 2 resultSrc $end
     $var wire  1 l zero $end
     $scope module aluDecoder $end
      $var wire  3 * aluControl [2:0] $end
      $var wire  2 6 aluOp [1:0] $end
      $var wire  3 ? funct3 [2:0] $end
      $var wire  1 @ funct7 $end
      $var wire  1 A op $end
      $var wire  2 B opfunct7 [1:0] $end
     $upscope $end
     $scope module mainDecoder $end
      $var wire  2 6 aluOp [1:0] $end
      $var wire  1 + aluSrc $end
      $var wire  2 , immSrc [1:0] $end
      $var wire  1 - jalrSrc $end
      $var wire  1 . jumpSrc $end
      $var wire  1 3 memWrite $end
      $var wire  7 > op [6:0] $end
      $var wire  1 / pcSrc $end
      $var wire  1 ) regWrite $end
      $var wire  1 2 resultSrc $end
      $var wire  1 l zero $end
     $upscope $end
    $upscope $end
    $scope module dataMemory $end
     $var wire 32 r ADDR_WIDTH [31:0] $end
     $var wire 17 7 ALUResult [16:0] $end
     $var wire 32 o DATA_WIDTH [31:0] $end
     $var wire  1 3 MemWrite $end
     $var wire 32 4 ReadData [31:0] $end
     $var wire  3 ? SizeCtr [2:0] $end
     $var wire 32 < WriteData [31:0] $end
     $var wire  1 $ clk $end
    $upscope $end
    $scope module extend $end
     $var wire 32 o DATA_WIDTH [31:0] $end
     $var wire 32 o INSTR_WIDTH [31:0] $end
     $var wire 32 ( immExt [31:0] $end
     $var wire  2 , immSrc [1:0] $end
     $var wire 32 : instruction [31:0] $end
     $var wire  1 . jumpSrc $end
    $upscope $end
    $scope module extendPC $end
     $var wire 32 o ADDR_WIDTH [31:0] $end
     $var wire 32 o DATA_WIDTH [31:0] $end
     $var wire 32 n branchPC [31:0] $end
     $var wire 32 ( immOp [31:0] $end
     $var wire  1 - jalrSrc $end
     $var wire 32 9 pc [31:0] $end
     $var wire 32 5 result [31:0] $end
    $upscope $end
    $scope module instrMemory $end
     $var wire 32 o ADDR_WIDTH [31:0] $end
     $var wire 32 o INSTR_WIDTH [31:0] $end
     $var wire 32 : instr [31:0] $end
     $var wire 32 9 pc [31:0] $end
    $upscope $end
    $scope module jumpMux $end
     $var wire 32 k ALUout [31:0] $end
     $var wire 32 o DATA_WIDTH [31:0] $end
     $var wire 32 = incPC [31:0] $end
     $var wire  1 . jumpSrc $end
     $var wire 32 5 result [31:0] $end
    $upscope $end
    $scope module pcMux $end
     $var wire 32 o ADDR_WIDTH [31:0] $end
     $var wire  1 / PCsrc $end
     $var wire 32 n branchPC [31:0] $end
     $var wire 32 = incPC [31:0] $end
     $var wire 32 m nextPC [31:0] $end
    $upscope $end
    $scope module pcReg $end
     $var wire 32 o ADDR_WIDTH [31:0] $end
     $var wire 32 t OFFSET [31:0] $end
     $var wire  1 $ clk $end
     $var wire 32 = incPC [31:0] $end
     $var wire 32 m nextPC [31:0] $end
     $var wire 32 9 pc [31:0] $end
     $var wire  1 g rst $end
    $upscope $end
    $scope module regFile $end
     $var wire 32 ; ALUop1 [31:0] $end
     $var wire 32 k ALUout [31:0] $end
     $var wire 32 o DATA_WIDTH [31:0] $end
     $var wire 32 s REG_DATA_WIDTH [31:0] $end
     $var wire  1 ) RegWrite $end
     $var wire 32 i a0 [31:0] $end
     $var wire  1 $ clk $end
     $var wire  5 E rd [4:0] $end
     $var wire 32 < regOp2 [31:0] $end
     $var wire 32 F rom_array[0] [31:0] $end
     $var wire 32 P rom_array[10] [31:0] $end
     $var wire 32 Q rom_array[11] [31:0] $end
     $var wire 32 R rom_array[12] [31:0] $end
     $var wire 32 S rom_array[13] [31:0] $end
     $var wire 32 T rom_array[14] [31:0] $end
     $var wire 32 U rom_array[15] [31:0] $end
     $var wire 32 V rom_array[16] [31:0] $end
     $var wire 32 W rom_array[17] [31:0] $end
     $var wire 32 X rom_array[18] [31:0] $end
     $var wire 32 Y rom_array[19] [31:0] $end
     $var wire 32 G rom_array[1] [31:0] $end
     $var wire 32 Z rom_array[20] [31:0] $end
     $var wire 32 [ rom_array[21] [31:0] $end
     $var wire 32 \ rom_array[22] [31:0] $end
     $var wire 32 ] rom_array[23] [31:0] $end
     $var wire 32 ^ rom_array[24] [31:0] $end
     $var wire 32 _ rom_array[25] [31:0] $end
     $var wire 32 ` rom_array[26] [31:0] $end
     $var wire 32 a rom_array[27] [31:0] $end
     $var wire 32 b rom_array[28] [31:0] $end
     $var wire 32 c rom_array[29] [31:0] $end
     $var wire 32 H rom_array[2] [31:0] $end
     $var wire 32 d rom_array[30] [31:0] $end
     $var wire 32 e rom_array[31] [31:0] $end
     $var wire 32 I rom_array[3] [31:0] $end
     $var wire 32 J rom_array[4] [31:0] $end
     $var wire 32 K rom_array[5] [31:0] $end
     $var wire 32 L rom_array[6] [31:0] $end
     $var wire 32 M rom_array[7] [31:0] $end
     $var wire 32 N rom_array[8] [31:0] $end
     $var wire 32 O rom_array[9] [31:0] $end
     $var wire  5 C rs1 [4:0] $end
     $var wire  5 D rs2 [4:0] $end
    $upscope $end
    $scope module resultMux $end
     $var wire 32 1 ALUResult [31:0] $end
     $var wire 32 o DATA_WIDTH [31:0] $end
     $var wire 32 4 ReadData [31:0] $end
     $var wire 32 5 Result [31:0] $end
     $var wire  1 2 ResultSrc $end
    $upscope $end
   $upscope $end
   $scope module triggerFSM $end
    $var wire  1 f clk $end
    $var wire 32 ' current_state [31:0] $end
    $var wire 32 8 next_state [31:0] $end
    $var wire  1 g rst $end
    $var wire  1 h trigger $end
    $var wire  1 # triggerRst $end
   $upscope $end
  $upscope $end
 $upscope $end
$enddefinitions $end


#0
1#
0$
b00000000 %
b0000 &
b00000000000000000000000000000000 '
b00000000000000000000000000000000 (
0)
b000 *
0+
b00 ,
0-
0.
0/
b00000000000000000000000000000000 0
b00000000000000000000000000000000 1
02
03
b00000000000000000000000000000000 4
b00000000000000000000000000000000 5
b00 6
b00000000000000000 7
b00000000000000000000000000000000 8
b00000000000000000000000000000000 9
b00000000000000000000000000000000 :
b00000000000000000000000000000000 ;
b00000000000000000000000000000000 <
b00000000000000000000000000000100 =
b0000000 >
b000 ?
0@
0A
b00 B
b00000 C
b00000 D
b00000 E
b00000000000000000000000000000000 F
b00000000000000000000000000000000 G
b00000000000000000000000000000000 H
b00000000000000000000000000000000 I
b00000000000000000000000000000000 J
b00000000000000000000000000000000 K
b00000000000000000000000000000000 L
b00000000000000000000000000000000 M
b00000000000000000000000000000000 N
b00000000000000000000000000000000 O
b00000000000000000000000000000000 P
b00000000000000000000000000000000 Q
b00000000000000000000000000000000 R
b00000000000000000000000000000000 S
b00000000000000000000000000000000 T
b00000000000000000000000000000000 U
b00000000000000000000000000000000 V
b00000000000000000000000000000000 W
b00000000000000000000000000000000 X
b00000000000000000000000000000000 Y
b00000000000000000000000000000000 Z
b00000000000000000000000000000000 [
b00000000000000000000000000000000 \
b00000000000000000000000000000000 ]
b00000000000000000000000000000000 ^
b00000000000000000000000000000000 _
b00000000000000000000000000000000 `
b00000000000000000000000000000000 a
b00000000000000000000000000000000 b
b00000000000000000000000000000000 c
b00000000000000000000000000000000 d
b00000000000000000000000000000000 e
1f
0g
1h
b00000000000000000000000000000000 i
b0000 j
b00000000000000000000000000000000 k
1l
b00000000000000000000000000000100 m
b00000000000000000000000000000000 n
b00000000000000000000000000100000 o
1p
b00001111 q
b00000000000000000000000000010001 r
b00000000000000000000000000000101 s
b00000000000000000000000000000100 t
#1
b0001 &
1)
1+
12
b00000000000000000000000000000001 8
b00000000000000111010010000000011 :
b0000011 >
b010 ?
b00111 C
b01000 E
0f
b0001 j
#2
0#
1$
b00001111 %
b0010 &
b00000000000000000000000000000001 '
b00000000000000000000000000000001 (
b00000000000000000000000000000001 0
b00000000000000000000000000000001 1
02
b00000000000000000000000000000001 5
b10 6
b00000000000000001 7
b00000000000000000000000000000100 9
b00000000000100000000001100010011 :
b00000000000000000000000000001000 =
b0010011 >
b000 ?
b00000 C
b00001 D
b00110 E
1f
b0010 j
b00000000000000000000000000000001 k
b00000000000000000000000000001000 m
b00000000000000000000000000000101 n
#3
0f
#4
0$
b00001110 %
b0100 &
1f
b0100 j
#5
0f
#6
b00001101 %
b1001 &
1f
b1001 j
#7
0f
#8
b00001100 %
b0011 &
1f
b0011 j
#9
0f
#10
b00001011 %
b0110 &
1f
b0110 j
#11
0f
#12
b00001010 %
b1101 &
1f
b1101 j
#13
0f
#14
b00001001 %
b1010 &
1f
b1010 j
#15
0f
#16
b00001000 %
b0101 &
1f
b0101 j
#17
0f
#18
b00000111 %
b1011 &
1f
b1011 j
#19
0f
#20
b00000110 %
b0111 &
1f
b0111 j
#21
0f
#22
b00000101 %
b1111 &
1f
b1111 j
#23
0f
#24
b00000100 %
b1110 &
1f
b1110 j
#25
0f
#26
b00000011 %
b1100 &
1f
b1100 j
#27
0f
#28
b00000010 %
b1000 &
1f
b1000 j
#29
0f
#30
b00000001 %
b0001 &
1f
b0001 j
#31
0f
#32
b00000000 %
b0010 &
1f
b0010 j
#33
0f
#34
1$
b00001111 %
b0100 &
b00000000000000000000000000001000 9
b00000000000100000000011000010011 :
b00000000000000000000000000001100 =
b01100 E
b00000000000000000000000000000001 L
1f
b0100 j
b00000000000000000000000000001100 m
b00000000000000000000000000001001 n
#35
0f
#36
0$
b00001110 %
b1001 &
1f
b1001 j
#37
0f
#38
b00001101 %
b0011 &
1f
b0011 j
#39
0f
#40
b00001100 %
b0110 &
1f
b0110 j
#41
0f
#42
b00001011 %
b1101 &
1f
b1101 j
#43
0f
#44
b00001010 %
b1010 &
1f
b1010 j
#45
0f
#46
b00001001 %
b0101 &
1f
b0101 j
#47
0f
#48
b00001000 %
b1011 &
1f
b1011 j
#49
0f
#50
b00000111 %
b0111 &
1f
b0111 j
#51
0f
#52
b00000110 %
b1111 &
1f
b1111 j
#53
0f
#54
b00000101 %
b1110 &
1f
b1110 j
#55
0f
#56
b00000100 %
b1100 &
1f
b1100 j
#57
0f
#58
b00000011 %
b1000 &
1f
b1000 j
#59
0f
#60
b00000010 %
b0001 &
1f
b0001 j
#61
0f
#62
b00000001 %
b0010 &
1f
b0010 j
#63
0f
#64
b00000000 %
b0100 &
1f
b0100 j
#65
0f
#66
1$
b00001111 %
b1001 &
b00000000000000000000000000010000 (
b11 ,
1.
1/
b00000000000000000000000000010000 0
b00000000000000000000000000010000 1
b00000000000000000000000000010000 5
b00 6
b00000000000010000 7
b00000000000000000000000000001100 9
b00000001000000000000000001101111 :
b00000000000000000000000000010000 =
b1101111 >
1A
b10 B
b10000 D
b00000 E
b00000000000000000000000000000001 R
1f
b1001 j
b00000000000000000000000000010000 k
b00000000000000000000000000011100 m
b00000000000000000000000000011100 n
#67
0f
#68
0$
b00001110 %
b0011 &
1f
b0011 j
#69
0f
#70
b00001101 %
b0110 &
1f
b0110 j
#71
0f
#72
b00001100 %
b1101 &
1f
b1101 j
#73
0f
#74
b00001011 %
b1010 &
1f
b1010 j
#75
0f
#76
b00001010 %
b0101 &
1f
b0101 j
#77
0f
#78
b00001001 %
b1011 &
1f
b1011 j
#79
0f
#80
b00001000 %
b0111 &
1f
b0111 j
#81
0f
#82
b00000111 %
b1111 &
1f
b1111 j
#83
0f
#84
b00000110 %
b1110 &
1f
b1110 j
#85
0f
#86
b00000101 %
b1100 &
1f
b1100 j
#87
0f
#88
b00000100 %
b1000 &
1f
b1000 j
#89
0f
#90
b00000011 %
b0001 &
1f
b0001 j
#91
0f
#92
b00000010 %
b0010 &
1f
b0010 j
#93
0f
#94
b00000001 %
b0100 &
1f
b0100 j
#95
0f
#96
b00000000 %
b1001 &
1f
b1001 j
#97
0f
#98
1$
b00001111 %
b0011 &
b00000000000000000000000000000000 (
0)
b01 ,
0.
0/
b00000000000000000000000000000000 0
b00000000000000000000000000000000 1
12
13
b00000000000000000000000000000000 5
b00000000000000000 7
b00000000000000000000000000011100 9
b00000000000100010010000000100011 :
b00000000000000000000000000100000 =
b0100011 >
b010 ?
b00010 C
b00001 D
1f
b0011 j
b00000000000000000000000000000000 k
b00000000000000000000000000100000 m
#99
0f
#100
0$
b00001110 %
b0110 &
1f
b0110 j
#101
0f
#102
b00001101 %
b1101 &
1f
b1101 j
#103
0f
#104
b00001100 %
b1010 &
1f
b1010 j
#105
0f
#106
b00001011 %
b0101 &
1f
b0101 j
#107
0f
#108
b00001010 %
b1011 &
1f
b1011 j
#109
0f
#110
b00001001 %
b0111 &
1f
b0111 j
#111
0f
#112
b00001000 %
b1111 &
1f
b1111 j
#113
0f
#114
b00000111 %
b1110 &
1f
b1110 j
#115
0f
#116
b00000110 %
b1100 &
1f
b1100 j
#117
0f
#118
b00000101 %
b1000 &
1f
b1000 j
#119
0f
#120
b00000100 %
b0001 &
1f
b0001 j
#121
0f
#122
b00000011 %
b0010 &
1f
b0010 j
#123
0f
#124
b00000010 %
b0100 &
1f
b0100 j
#125
0f
#126
b00000001 %
b1001 &
1f
b1001 j
#127
0f
#128
b00000000 %
b0011 &
1f
b0011 j
#129
0f
#130
1$
b00001111 %
b0110 &
b00000000000000000000000000010000 (
1)
b11 ,
1.
1/
b00000000000000000000000000010000 0
b00000000000000000000000000010000 1
02
03
b00000000000000000000000000010000 5
b00000000000010000 7
b00000000000000000000000000100000 9
b00000001000000000000000011101111 :
b00000000000000000000000000100100 =
b1101111 >
b000 ?
b00000 C
b10000 D
b00001 E
1f
b0110 j
b00000000000000000000000000100100 k
b00000000000000000000000000110000 m
b00000000000000000000000000110000 n
#131
0f
#132
0$
b00001110 %
b1101 &
1f
b1101 j
#133
0f
#134
b00001101 %
b1010 &
1f
b1010 j
#135
0f
#136
b00001100 %
b0101 &
1f
b0101 j
#137
0f
#138
b00001011 %
b1011 &
1f
b1011 j
#139
0f
#140
b00001010 %
b0111 &
1f
b0111 j
#141
0f
#142
b00001001 %
b1111 &
1f
b1111 j
#143
0f
#144
b00001000 %
b1110 &
1f
b1110 j
#145
0f
#146
b00000111 %
b1100 &
1f
b1100 j
#147
0f
#148
b1011 &
b00000000000000000000000000000100 (
b00 ,
0.
0/
b00000000000000000000000000000100 0
b00000000000000000000000000000100 1
b00000000000000000000000000000100 5
b10 6
b00000000000000100 7
b00000000000000000000000000101000 9
b00000000010000010000000100010011 :
b00000000000000000000000000101100 =
b0010011 >
0A
b00 B
b00010 C
b00100 D
b00010 E
b00000000000000000000000011111111 P
1f
b00000000000000000000000011111111 i
b1011 j
b00000000000000000000000000000100 k
b00000000000000000000000000101100 m
b00000000000000000000000000101100 n
#149
0f
#150
b00000110 %
b0111 &
1f
b0111 j
#151
0f
#152
b00000101 %
b1111 &
1f
b1111 j
#153
0f
#154
b00000100 %
b1110 &
1f
b1110 j
#155
0f
#156
b00000011 %
b1100 &
1f
b1100 j
#157
0f
#158
b00000010 %
b1000 &
1f
b1000 j
#159
0f
#160
b00000001 %
b0001 &
1f
b0001 j
#161
0f
#162
b00000000 %
b0010 &
1f
b0010 j
#163
0f
#164
1$
b00001111 %
b0100 &
b00000000000000000000000000000000 (
1-
1.
1/
b00000000000000000000000000000000 0
b00000000000000000000000000000000 1
b00000000000000000000000000000000 5
b00 6
b00000000000000000 7
b00000000000000000000000000101100 9
b00000000000000001000000001100111 :
b00000000000000000000000000110000 =
b1100111 >
1A
b10 B
b00001 C
b00000 D
b00000 E
b00000000000000000000000000000100 H
1f
b0100 j
b00000000000000000000000000110000 k
b00000000000000000000000000000000 m
b00000000000000000000000000000000 n
#165
0f
#166
0$
b00001110 %
b1001 &
1f
b1001 j
#167
0f
#168
b00001101 %
b0011 &
1f
b0011 j
#169
0f
#170
b00001100 %
b0110 &
1f
b0110 j
#171
0f
#172
b00001011 %
b1101 &
1f
b1101 j
#173
0f
#174
b00001010 %
b1010 &
1f
b1010 j
#175
0f
#176
b00000001 %
b0111 &
b00000000000000000000000000000111 (
0-
0.
0/
b00000000000000000000000000000111 0
b00000000000000000000000000000111 1
b00000000000000000000000000000111 5
b10 6
b00000000000000111 7
b00000000000000000000000000111000 9
b00000000011100000000010100010011 :
b00000000000000000000000000111100 =
b0010011 >
0A
b00 B
b00000 C
b00111 D
b01010 E
b00000000000000000000000000100100 G
b00000000000000000000000000000011 P
1f
b00000000000000000000000000000001 i
b0111 j
b00000000000000000000000000000111 k
b00000000000000000000000000111100 m
b00000000000000000000000000111111 n
#177
0f
#178
b00000000 %
b1111 &
1f
b1111 j
#179
0f
#180
1$
b00001111 %
b1110 &
b00000000000000000000000000001111 (
b00000000000000000000000000001111 0
b00000000000000000000000000001111 1
b00000000000000000000000000001111 5
b00000000000001111 7
b00000000000000000000000000111100 9
b00000000111100000000010100010011 :
b00000000000000000000000001000000 =
b01111 D
b00000000000000000000000000000111 P
1f
b00000000000000000000000000000011 i
b1110 j
b00000000000000000000000000001111 k
b00000000000000000000000001000000 m
b00000000000000000000000001001011 n
#181
0f
#182
0$
b00001110 %
b1100 &
1f
b1100 j
#183
0f
#184
b00001101 %
b1000 &
1f
b1000 j
#185
0f
#186
b00001100 %
b0001 &
1f
b0001 j
#187
0f
#188
b00001011 %
b0010 &
1f
b0010 j
#189
0f
#190
b00001010 %
b0100 &
1f
b0100 j
#191
0f
#192
b00001001 %
b1001 &
1f
b1001 j
#193
0f
#194
b00001000 %
b0011 &
1f
b0011 j
#195
0f
#196
b00000111 %
b0110 &
1f
b0110 j
#197
0f
#198
b00000110 %
b1101 &
1f
b1101 j
#199
0f
#200
b00000101 %
b1010 &
1f
b1010 j
#201
0f
#202
b00000100 %
b0101 &
1f
b0101 j
#203
0f
#204
b00000011 %
b1011 &
1f
b1011 j
#205
0f
#206
b00000010 %
b0111 &
1f
b0111 j
#207
0f
#208
b00000001 %
b1111 &
1f
b1111 j
#209
0f
#210
b00000000 %
b1110 &
1f
b1110 j
#211
0f
#212
1$
b00001111 %
b1100 &
b00000000000000000000000000011111 (
b00000000000000000000000000011111 0
b00000000000000000000000000011111 1
b00000000000000000000000000011111 5
b00000000000011111 7
b00000000000000000000000001000000 9
b00000001111100000000010100010011 :
b00000000000000000000000001000100 =
b11111 D
b00000000000000000000000000001111 P
1f
b00000000000000000000000000000111 i
b1100 j
b00000000000000000000000000011111 k
b00000000000000000000000001000100 m
b00000000000000000000000001011111 n
#213
0f
#214
0$
b00001110 %
b1000 &
1f
b1000 j
#215
0f
#216
b00001101 %
b0001 &
1f
b0001 j
#217
0f
#218
b00001100 %
b0010 &
1f
b0010 j
#219
0f
#220
b00001011 %
b0100 &
1f
b0100 j
#221
0f
#222
b00001010 %
b1001 &
1f
b1001 j
#223
0f
#224
b00001001 %
b0011 &
1f
b0011 j
#225
0f
#226
b00001000 %
b0110 &
1f
b0110 j
#227
0f
#228
b00000111 %
b1101 &
1f
b1101 j
#229
0f
#230
b00000110 %
b1010 &
1f
b1010 j
#231
0f
#232
b00000101 %
b0101 &
1f
b0101 j
#233
0f
#234
b00000100 %
b1011 &
1f
b1011 j
#235
0f
#236
b00000011 %
b0111 &
1f
b0111 j
#237
0f
#238
b00000010 %
b1111 &
1f
b1111 j
#239
0f
#240
b00000001 %
b1110 &
1f
b1110 j
#241
0f
#242
b00000000 %
b1100 &
1f
b1100 j
#243
0f
#244
1$
b00001111 %
b1000 &
b00000000000000000000000000111111 (
b00000000000000000000000000111111 0
b00000000000000000000000000111111 1
b00000000000000000000000000111111 5
b00000000000111111 7
b00000000000000000000000001000100 9
b00000011111100000000010100010011 :
b00000000000000000000000001001000 =
b00000000000000000000000000011111 P
1f
b00000000000000000000000000001111 i
b1000 j
b00000000000000000000000000111111 k
b00000000000000000000000001001000 m
b00000000000000000000000010000011 n
#245
0f
#246
0$
b00001110 %
b0001 &
1f
b0001 j
#247
0f
#248
b00001101 %
b0010 &
1f
b0010 j
#249
0f
#250
b00001100 %
b0100 &
1f
b0100 j
#251
0f
#252
b00001011 %
b1001 &
1f
b1001 j
#253
0f
#254
b00001010 %
b0011 &
1f
b0011 j
#255
0f
#256
b00001001 %
b0110 &
1f
b0110 j
#257
0f
#258
b00001000 %
b1101 &
1f
b1101 j
#259
0f
#260
b00000111 %
b1010 &
1f
b1010 j
#261
0f
#262
b00000110 %
b0101 &
1f
b0101 j
#263
0f
#264
b00000101 %
b1011 &
1f
b1011 j
#265
0f
#266
b00000100 %
b0111 &
1f
b0111 j
#267
0f
#268
b00000011 %
b1111 &
1f
b1111 j
#269
0f
#270
b00000010 %
b1110 &
1f
b1110 j
#271
0f
#272
b00000001 %
b1100 &
1f
b1100 j
#273
0f
#274
b00000000 %
b1000 &
1f
b1000 j
#275
0f
#276
1$
b00001111 %
b0001 &
b00000000000000000000000001111111 (
b00000000000000000000000001111111 0
b00000000000000000000000001111111 1
b00000000000000000000000001111111 5
b00000000001111111 7
b00000000000000000000000001001000 9
b00000111111100000000010100010011 :
b00000000000000000000000001001100 =
b00000000000000000000000000111111 P
1f
b00000000000000000000000000011111 i
b0001 j
b00000000000000000000000001111111 k
b00000000000000000000000001001100 m
b00000000000000000000000011000111 n
#277
0f
#278
0$
b00001110 %
b0010 &
1f
b0010 j
#279
0f
#280
b00001101 %
b0100 &
1f
b0100 j
#281
0f
#282
b00001100 %
b1001 &
1f
b1001 j
#283
0f
#284
b00001011 %
b0011 &
1f
b0011 j
#285
0f
#286
b00001010 %
b0110 &
1f
b0110 j
#287
0f
#288
b00001001 %
b1101 &
1f
b1101 j
#289
0f
#290
b00001000 %
b1010 &
1f
b1010 j
#291
0f
#292
b00000111 %
b0101 &
1f
b0101 j
#293
0f
#294
b00000110 %
b1011 &
1f
b1011 j
#295
0f
#296
b00000101 %
b0111 &
1f
b0111 j
#297
0f
#298
b00000100 %
b1111 &
1f
b1111 j
#299
0f
#300
b00000011 %
b1110 &
1f
b1110 j
#301
0f
#302
b00000010 %
b1100 &
1f
b1100 j
#303
0f
#304
b00000001 %
b1000 &
1f
b1000 j
#305
0f
#306
b00000000 %
b0001 &
1f
b0001 j
#307
0f
#308
1$
b00001111 %
b0010 &
b00000000000000000000000011111111 (
b00000000000000000000000011111111 0
b00000000000000000000000011111111 1
b00000000000000000000000011111111 5
b00000000011111111 7
b00000000000000000000000001001100 9
b00001111111100000000010100010011 :
b00000000000000000000000001010000 =
b00000000000000000000000001111111 P
1f
b00000000000000000000000000111111 i
b0010 j
b00000000000000000000000011111111 k
b00000000000000000000000001010000 m
b00000000000000000000000101001011 n
#309
0f
#310
0$
b00001110 %
b0100 &
1f
b0100 j
#311
0f
#312
b00001101 %
b1001 &
1f
b1001 j
#313
0f
#314
b00001100 %
b0011 &
1f
b0011 j
#315
0f
#316
b00001011 %
b0110 &
1f
b0110 j
#317
0f
#318
b00001010 %
b1101 &
1f
b1101 j
#319
0f
#320
b00001001 %
b1010 &
1f
b1010 j
#321
0f
#322
b00001000 %
b0101 &
1f
b0101 j
#323
0f
#324
b00000111 %
b1011 &
1f
b1011 j
#325
0f
#326
b00000110 %
b0111 &
1f
b0111 j
#327
0f
#328
b00000101 %
b1111 &
1f
b1111 j
#329
0f
#330
b00000100 %
b1110 &
1f
b1110 j
#331
0f
#332
b00000011 %
b1100 &
1f
b1100 j
#333
0f
#334
b00000010 %
b1000 &
1f
b1000 j
#335
0f
#336
b00000001 %
b0001 &
1f
b0001 j
#337
0f
#338
b00000000 %
b0010 &
1f
b0010 j
#339
0f
#340
1$
b00001111 %
b0100 &
b00000000000000000000000000000000 (
1-
1.
1/
b00000000000000000000000000000000 0
b00000000000000000000000000100100 1
b00000000000000000000000000100100 5
b00 6
b00000000000100100 7
b00000000000000000000000001010000 9
b00000000000000001000000001100111 :
b00000000000000000000000000100100 ;
b00000000000000000000000001010100 =
b1100111 >
1A
b10 B
b00001 C
b00000 D
b00000 E
b00000000000000000000000011111111 P
1f
b00000000000000000000000001111111 i
b0100 j
b00000000000000000000000001010100 k
0l
b00000000000000000000000000100100 m
b00000000000000000000000000100100 n
#341
0f
#342
0$
b00001110 %
b1001 &
1f
b1001 j
#343
0f
#344
b00001101 %
b0011 &
1f
b0011 j
#345
0f
#346
b00001100 %
b0110 &
1f
b0110 j
#347
0f
#348
b00001011 %
b1101 &
1f
b1101 j
#349
0f
#350
b00001010 %
b1010 &
1f
b1010 j
#351
0f
#352
b00001001 %
b0101 &
1f
b0101 j
#353
0f
#354
b00001000 %
b1011 &
1f
b1011 j
#355
0f
#356
b00000111 %
b0111 &
1f
b0111 j
#357
0f
#358
b00000110 %
b1111 &
1f
b1111 j
#359
0f
#360
b00000101 %
b1110 &
1f
b1110 j
#361
0f
#362
b00000100 %
b1100 &
1f
b1100 j
#363
0f
#364
b00000011 %
b1000 &
1f
b1000 j
#365
0f
#366
b00000010 %
b0001 &
1f
b0001 j
#367
0f
#368
b00000001 %
b0010 &
1f
b0010 j
#369
0f
#370
b00000000 %
b0100 &
1f
b0100 j
#371
0f
#372
1$
b00001111 %
b1001 &
0-
0.
0/
b00000000000000000000000000000100 1
12
b00000000000000000000000000000000 5
b00000000000000100 7
b00000000000000000000000000100100 9
b00000000000000010010000010000011 :
b00000000000000000000000000000100 ;
b00000000000000000000000000101000 =
b0000011 >
b010 ?
0A
b00 B
b00010 C
b00001 E
1f
b00000000000000000000000011111111 i
b1001 j
b00000000000000000000000000000000 k
b00000000000000000000000000101000 m
#373
0f
#374
0$
b00001110 %
b0011 &
1f
b0011 j
#375
0f
#376
b00001101 %
b0110 &
1f
b0110 j
#377
0f
#378
b00001100 %
b1101 &
1f
b1101 j
#379
0f
#380
b00001011 %
b1010 &
1f
b1010 j
#381
0f
#382
b00001010 %
b0101 &
1f
b0101 j
#383
0f
#384
b00001001 %
b1011 &
1f
b1011 j
#385
0f
#386
b00001000 %
b0111 &
1f
b0111 j
#387
0f
#388
b00000111 %
b1111 &
1f
b1111 j
#389
0f
#390
b00000110 %
b1110 &
1f
b1110 j
#391
0f
#392
b00000101 %
b1100 &
1f
b1100 j
#393
0f
#394
b00000100 %
b1000 &
1f
b1000 j
#395
0f
#396
b00000011 %
b0001 &
1f
b0001 j
#397
0f
#398
b00000010 %
b0010 &
1f
b0010 j
#399
0f
#400
b00000001 %
b0100 &
1f
b0100 j
#401
0f
#402
b00000000 %
b1001 &
1f
b1001 j
#403
0f
