tb/f1_program/f1.vcd
$version Generated by VerilatedVcd $end
$date Thu Dec 12 00:42:01 2024 $end
$timescale 1ps $end

 $scope module TOP $end
  $var wire 32 h a0 [31:0] $end
  $var wire  1 e clk $end
  $var wire  1 f rst $end
  $var wire  1 g trigger $end
  $scope module f1 $end
   $var wire 32 m DATA_WIDTH [31:0] $end
   $var wire 32 h a0 [31:0] $end
   $var wire  1 e clk $end
   $var wire  1 $ delayed_clk $end
   $var wire  1 f rst $end
   $var wire  1 g trigger $end
   $var wire  1 # triggerRst $end
   $scope module clkdiv $end
    $var wire  1 e clkin $end
    $var wire  1 $ clkout $end
    $var wire  8 % count [7:0] $end
    $var wire  8 n delay [7:0] $end
    $var wire  1 f rst $end
   $upscope $end
   $scope module top $end
    $var wire 32 m ADDR_WIDTH [31:0] $end
    $var wire 32 m DATA_WIDTH [31:0] $end
    $var wire 32 m INSTR_WIDTH [31:0] $end
    $var wire 32 o MEM_ADDR_WIDTH [31:0] $end
    $var wire 32 q OFFSET [31:0] $end
    $var wire 32 p REG_DATA_WIDTH [31:0] $end
    $var wire 32 h a0 [31:0] $end
    $var wire  3 ) aluControl [2:0] $end
    $var wire 32 0 aluResult [31:0] $end
    $var wire  1 * aluSrc $end
    $var wire 32 l branchPC [31:0] $end
    $var wire  1 $ clk $end
    $var wire 32 ' immOp [31:0] $end
    $var wire  2 + immSrc [1:0] $end
    $var wire 32 < incPC [31:0] $end
    $var wire 32 9 instr [31:0] $end
    $var wire  1 , jalrSrc $end
    $var wire  1 - jumpSrc $end
    $var wire  1 2 memWrite $end
    $var wire 32 k nextPC [31:0] $end
    $var wire 32 8 pc [31:0] $end
    $var wire  1 . pcSrc $end
    $var wire 32 3 readData [31:0] $end
    $var wire 32 ; regOp2 [31:0] $end
    $var wire  1 ( regWrite $end
    $var wire 32 4 result [31:0] $end
    $var wire  1 1 resultSrc $end
    $var wire  1 f rst $end
    $var wire 32 : srcA [31:0] $end
    $var wire 32 / srcB [31:0] $end
    $var wire  1 # trigger $end
    $var wire 32 i wd3 [31:0] $end
    $var wire  1 j zero $end
    $scope module alu $end
     $var wire 32 m DATA_WIDTH [31:0] $end
     $var wire  3 ) aluControl [2:0] $end
     $var wire 32 0 aluResult [31:0] $end
     $var wire 32 : srcA [31:0] $end
     $var wire 32 / srcB [31:0] $end
    $upscope $end
    $scope module aluMux $end
     $var wire 32 m DATA_WIDTH [31:0] $end
     $var wire  1 * aluSrc $end
     $var wire 32 ' immOp [31:0] $end
     $var wire 32 ; regOp2 [31:0] $end
     $var wire 32 / srcB [31:0] $end
    $upscope $end
    $scope module branchUnit $end
     $var wire 32 m DATA_WIDTH [31:0] $end
     $var wire  3 ) aluControl [2:0] $end
     $var wire 32 : srcA [31:0] $end
     $var wire 32 ; srcB [31:0] $end
     $var wire  1 j zero $end
    $upscope $end
    $scope module controlUnit $end
     $var wire  3 ) aluControl [2:0] $end
     $var wire  2 5 aluOp [1:0] $end
     $var wire  1 * aluSrc $end
     $var wire  3 > funct3 [2:0] $end
     $var wire  1 ? funct7 $end
     $var wire  2 + immSrc [1:0] $end
     $var wire  1 , jalrSrc $end
     $var wire  1 - jumpSrc $end
     $var wire  1 2 memWrite $end
     $var wire  7 = op [6:0] $end
     $var wire  1 . pcSrc $end
     $var wire  1 ( regWrite $end
     $var wire  1 1 resultSrc $end
     $var wire  1 j zero $end
     $scope module aluDecoder $end
      $var wire  3 ) aluControl [2:0] $end
      $var wire  2 5 aluOp [1:0] $end
      $var wire  3 > funct3 [2:0] $end
      $var wire  1 ? funct7 $end
      $var wire  1 @ op $end
      $var wire  2 A opfunct7 [1:0] $end
     $upscope $end
     $scope module mainDecoder $end
      $var wire  2 5 aluOp [1:0] $end
      $var wire  1 * aluSrc $end
      $var wire  2 + immSrc [1:0] $end
      $var wire  1 , jalrSrc $end
      $var wire  1 - jumpSrc $end
      $var wire  1 2 memWrite $end
      $var wire  7 = op [6:0] $end
      $var wire  1 . pcSrc $end
      $var wire  1 ( regWrite $end
      $var wire  1 1 resultSrc $end
      $var wire  1 j zero $end
     $upscope $end
    $upscope $end
    $scope module dataMemory $end
     $var wire 32 o ADDR_WIDTH [31:0] $end
     $var wire 17 6 ALUResult [16:0] $end
     $var wire 32 m DATA_WIDTH [31:0] $end
     $var wire  1 2 MemWrite $end
     $var wire 32 3 ReadData [31:0] $end
     $var wire  3 > SizeCtr [2:0] $end
     $var wire 32 ; WriteData [31:0] $end
     $var wire  1 $ clk $end
    $upscope $end
    $scope module extend $end
     $var wire 32 m DATA_WIDTH [31:0] $end
     $var wire 32 m INSTR_WIDTH [31:0] $end
     $var wire 32 ' immExt [31:0] $end
     $var wire  2 + immSrc [1:0] $end
     $var wire 32 9 instruction [31:0] $end
     $var wire  1 - jumpSrc $end
    $upscope $end
    $scope module extendPC $end
     $var wire 32 m ADDR_WIDTH [31:0] $end
     $var wire 32 m DATA_WIDTH [31:0] $end
     $var wire 32 l branchPC [31:0] $end
     $var wire 32 ' immOp [31:0] $end
     $var wire  1 , jalrSrc $end
     $var wire 32 8 pc [31:0] $end
     $var wire 32 4 result [31:0] $end
    $upscope $end
    $scope module instrMemory $end
     $var wire 32 m ADDR_WIDTH [31:0] $end
     $var wire 32 m INSTR_WIDTH [31:0] $end
     $var wire 32 9 instr [31:0] $end
     $var wire 32 8 pc [31:0] $end
    $upscope $end
    $scope module jumpMux $end
     $var wire 32 i ALUout [31:0] $end
     $var wire 32 m DATA_WIDTH [31:0] $end
     $var wire 32 < incPC [31:0] $end
     $var wire  1 - jumpSrc $end
     $var wire 32 4 result [31:0] $end
    $upscope $end
    $scope module pcMux $end
     $var wire 32 m ADDR_WIDTH [31:0] $end
     $var wire  1 . PCsrc $end
     $var wire 32 l branchPC [31:0] $end
     $var wire 32 < incPC [31:0] $end
     $var wire 32 k nextPC [31:0] $end
    $upscope $end
    $scope module pcReg $end
     $var wire 32 m ADDR_WIDTH [31:0] $end
     $var wire 32 q OFFSET [31:0] $end
     $var wire  1 $ clk $end
     $var wire 32 < incPC [31:0] $end
     $var wire 32 k nextPC [31:0] $end
     $var wire 32 8 pc [31:0] $end
     $var wire  1 f rst $end
    $upscope $end
    $scope module regFile $end
     $var wire 32 : ALUop1 [31:0] $end
     $var wire 32 i ALUout [31:0] $end
     $var wire 32 m DATA_WIDTH [31:0] $end
     $var wire 32 p REG_DATA_WIDTH [31:0] $end
     $var wire  1 ( RegWrite $end
     $var wire 32 h a0 [31:0] $end
     $var wire  1 $ clk $end
     $var wire  5 D rd [4:0] $end
     $var wire 32 ; regOp2 [31:0] $end
     $var wire 32 E rom_array[0] [31:0] $end
     $var wire 32 O rom_array[10] [31:0] $end
     $var wire 32 P rom_array[11] [31:0] $end
     $var wire 32 Q rom_array[12] [31:0] $end
     $var wire 32 R rom_array[13] [31:0] $end
     $var wire 32 S rom_array[14] [31:0] $end
     $var wire 32 T rom_array[15] [31:0] $end
     $var wire 32 U rom_array[16] [31:0] $end
     $var wire 32 V rom_array[17] [31:0] $end
     $var wire 32 W rom_array[18] [31:0] $end
     $var wire 32 X rom_array[19] [31:0] $end
     $var wire 32 F rom_array[1] [31:0] $end
     $var wire 32 Y rom_array[20] [31:0] $end
     $var wire 32 Z rom_array[21] [31:0] $end
     $var wire 32 [ rom_array[22] [31:0] $end
     $var wire 32 \ rom_array[23] [31:0] $end
     $var wire 32 ] rom_array[24] [31:0] $end
     $var wire 32 ^ rom_array[25] [31:0] $end
     $var wire 32 _ rom_array[26] [31:0] $end
     $var wire 32 ` rom_array[27] [31:0] $end
     $var wire 32 a rom_array[28] [31:0] $end
     $var wire 32 b rom_array[29] [31:0] $end
     $var wire 32 G rom_array[2] [31:0] $end
     $var wire 32 c rom_array[30] [31:0] $end
     $var wire 32 d rom_array[31] [31:0] $end
     $var wire 32 H rom_array[3] [31:0] $end
     $var wire 32 I rom_array[4] [31:0] $end
     $var wire 32 J rom_array[5] [31:0] $end
     $var wire 32 K rom_array[6] [31:0] $end
     $var wire 32 L rom_array[7] [31:0] $end
     $var wire 32 M rom_array[8] [31:0] $end
     $var wire 32 N rom_array[9] [31:0] $end
     $var wire  5 B rs1 [4:0] $end
     $var wire  5 C rs2 [4:0] $end
    $upscope $end
    $scope module resultMux $end
     $var wire 32 0 ALUResult [31:0] $end
     $var wire 32 m DATA_WIDTH [31:0] $end
     $var wire 32 3 ReadData [31:0] $end
     $var wire 32 4 Result [31:0] $end
     $var wire  1 1 ResultSrc $end
    $upscope $end
   $upscope $end
   $scope module triggerFSM $end
    $var wire  1 e clk $end
    $var wire 32 & current_state [31:0] $end
    $var wire 32 7 next_state [31:0] $end
    $var wire  1 f rst $end
    $var wire  1 g trigger $end
    $var wire  1 # triggerRst $end
   $upscope $end
  $upscope $end
 $upscope $end
$enddefinitions $end


#0
1#
0$
b00000000 %
b00000000000000000000000000000000 &
b00000000000000000000000000000000 '
0(
b000 )
0*
b00 +
0,
0-
0.
b00000000000000000000000000000000 /
b00000000000000000000000000000000 0
01
02
b00000000000000000000000000000000 3
b00000000000000000000000000000000 4
b00 5
b00000000000000000 6
b00000000000000000000000000000000 7
b00000000000000000000000000000000 8
b00000000000000000000000000000000 9
b00000000000000000000000000000000 :
b00000000000000000000000000000000 ;
b00000000000000000000000000000100 <
b0000000 =
b000 >
0?
0@
b00 A
b00000 B
b00000 C
b00000 D
b00000000000000000000000000000000 E
b00000000000000000000000000000000 F
b00000000000000000000000000000000 G
b00000000000000000000000000000000 H
b00000000000000000000000000000000 I
b00000000000000000000000000000000 J
b00000000000000000000000000000000 K
b00000000000000000000000000000000 L
b00000000000000000000000000000000 M
b00000000000000000000000000000000 N
b00000000000000000000000000000000 O
b00000000000000000000000000000000 P
b00000000000000000000000000000000 Q
b00000000000000000000000000000000 R
b00000000000000000000000000000000 S
b00000000000000000000000000000000 T
b00000000000000000000000000000000 U
b00000000000000000000000000000000 V
b00000000000000000000000000000000 W
b00000000000000000000000000000000 X
b00000000000000000000000000000000 Y
b00000000000000000000000000000000 Z
b00000000000000000000000000000000 [
b00000000000000000000000000000000 \
b00000000000000000000000000000000 ]
b00000000000000000000000000000000 ^
b00000000000000000000000000000000 _
b00000000000000000000000000000000 `
b00000000000000000000000000000000 a
b00000000000000000000000000000000 b
b00000000000000000000000000000000 c
b00000000000000000000000000000000 d
1e
0f
1g
b00000000000000000000000000000000 h
b00000000000000000000000000000000 i
1j
b00000000000000000000000000000100 k
b00000000000000000000000000000000 l
b00000000000000000000000000100000 m
b00001111 n
b00000000000000000000000000010001 o
b00000000000000000000000000000101 p
b00000000000000000000000000000100 q
#1
b00000000000000000010000000000000 '
1(
b100 )
1*
b11 +
b00000000000000000010000000000000 /
b00000000000000000010000000000000 0
b00000000000000000010000000000000 4
b11 5
b00010000000000000 6
b00000000000000000000000000000001 7
b00000000000000000010001110110111 9
b0110111 =
b010 >
1@
b10 A
b00111 D
0e
b00000000000000000010000000000000 i
0j
b00000000000000000010000000000000 l
#2
0#
1$
b00001111 %
b00000000000000000000000000000001 &
b00000000000000000000000000000000 '
b000 )
b00 +
b00000000000000000000000000000000 /
11
b00000000000000000000000000000000 4
b00 5
b00000000000000000000000000000100 8
b00000000000000111010010000000011 9
b00000000000000000010000000000000 :
b00000000000000000000000000001000 <
b0000011 =
0@
b00 A
b00111 B
b01000 D
b00000000000000000010000000000000 L
1e
0g
b00000000000000000000000000000000 i
b00000000000000000000000000001000 k
b00000000000000000000000000000100 l
#3
0e
#4
0$
b00001110 %
1e
#5
0e
#6
b00001101 %
1e
#7
0e
#8
b00001100 %
1e
#9
0e
#10
b00001011 %
1e
#11
0e
#12
b00001010 %
1e
#13
0e
#14
b00001001 %
1e
#15
0e
#16
b00001000 %
1e
#17
0e
#18
b00000111 %
1e
#19
0e
#20
b00000110 %
1e
#21
0e
#22
b00000101 %
1e
#23
0e
#24
b00000100 %
1e
#25
0e
#26
b00000011 %
1e
#27
0e
#28
b00000010 %
1e
#29
0e
#30
b00000001 %
1e
#31
0e
#32
b00000000 %
1e
#33
0e
#34
1$
b00001111 %
b00000000000000000000000000000001 '
b00000000000000000000000000000001 /
b00000000000000000000000000000001 0
01
b00000000000000000000000000000001 4
b10 5
b00000000000000001 6
b00000000000000000000000000001000 8
b00000000000100000000001100010011 9
b00000000000000000000000000000000 :
b00000000000000000000000000001100 <
b0010011 =
b000 >
b00000 B
b00001 C
b00110 D
1e
b00000000000000000000000000000001 i
1j
b00000000000000000000000000001100 k
b00000000000000000000000000001001 l
#35
0e
#36
0$
b00001110 %
1e
#37
0e
#38
b00001101 %
1e
#39
0e
#40
b00001100 %
1e
#41
0e
#42
b00001011 %
1e
#43
0e
#44
b00001010 %
1e
#45
0e
#46
b00001001 %
1e
#47
0e
#48
b00001000 %
1e
#49
0e
#50
b00000111 %
1e
#51
0e
#52
b00000110 %
1e
#53
0e
#54
b00000101 %
1e
#55
0e
#56
b00000100 %
1e
#57
0e
#58
b00000011 %
1e
#59
0e
#60
b00000010 %
1e
#61
0e
#62
b00000001 %
1e
#63
0e
#64
b00000000 %
1e
#65
0e
#66
1$
b00001111 %
b00000000000000000000000000010000 '
b11 +
1-
1.
b00000000000000000000000000010000 /
b00000000000000000000000000010000 0
b00000000000000000000000000010000 4
b00 5
b00000000000010000 6
b00000000000000000000000000001100 8
b00000001000000000000000001101111 9
b00000000000000000000000000010000 <
b1101111 =
1@
b10 A
b10000 C
b00000 D
b00000000000000000000000000000001 K
1e
b00000000000000000000000000010000 i
b00000000000000000000000000011100 k
b00000000000000000000000000011100 l
#67
0e
#68
0$
b00001110 %
1e
#69
0e
#70
b00001101 %
1e
#71
0e
#72
b00001100 %
1e
#73
0e
#74
b00001011 %
1e
#75
0e
#76
b00001010 %
1e
#77
0e
#78
b00001001 %
1e
#79
0e
#80
b00001000 %
1e
#81
0e
#82
b00000111 %
1e
#83
0e
#84
b00000110 %
1e
#85
0e
#86
b00000101 %
1e
#87
0e
#88
b00000100 %
1e
#89
0e
#90
b00000011 %
1e
#91
0e
#92
b00000010 %
1e
#93
0e
#94
b00000001 %
1e
#95
0e
#96
b00000000 %
1e
#97
0e
#98
1$
b00001111 %
b00000000000000000000000000000000 '
0(
b01 +
0-
0.
b00000000000000000000000000000000 /
b00000000000000000000000000000000 0
11
12
b00000000000000000000000000000000 4
b00000000000000000 6
b00000000000000000000000000011100 8
b00000000000100010010000000100011 9
b00000000000000000000000000100000 <
b0100011 =
b010 >
b00010 B
b00001 C
1e
b00000000000000000000000000000000 i
b00000000000000000000000000100000 k
#99
0e
#100
0$
b00001110 %
1e
#101
0e
#102
b00001101 %
1e
#103
0e
#104
b00001100 %
1e
#105
0e
#106
b00001011 %
1e
#107
0e
#108
b00001010 %
1e
#109
0e
#110
b00001001 %
1e
#111
0e
#112
b00001000 %
1e
#113
0e
#114
b00000111 %
1e
#115
0e
#116
b00000110 %
1e
#117
0e
#118
b00000101 %
1e
#119
0e
#120
b00000100 %
1e
#121
0e
#122
b00000011 %
1e
#123
0e
#124
b00000010 %
1e
#125
0e
#126
b00000001 %
1e
#127
0e
#128
b00000000 %
1e
#129
0e
#130
1$
b00001111 %
b00000000000000000000000000010000 '
1(
b11 +
1-
1.
b00000000000000000000000000010000 /
b00000000000000000000000000010000 0
01
02
b00000000000000000000000000010000 4
b00000000000010000 6
b00000000000000000000000000100000 8
b00000001000000000000000011101111 9
b00000000000000000000000000100100 <
b1101111 =
b000 >
b00000 B
b10000 C
b00001 D
1e
b00000000000000000000000000100100 i
b00000000000000000000000000110000 k
b00000000000000000000000000110000 l
#131
0e
#132
0$
b00001110 %
1e
#133
0e
#134
b00001101 %
1e
#135
0e
#136
b00001100 %
1e
#137
0e
#138
b00001011 %
1e
#139
0e
#140
b00001010 %
1e
#141
0e
#142
b00001001 %
1e
#143
0e
#144
b00001000 %
1e
#145
0e
#146
b00000111 %
1e
#147
0e
#148
b00000110 %
1e
#149
0e
#150
b00000101 %
1e
#151
0e
#152
b00000100 %
1e
#153
0e
#154
b00000011 %
1e
#155
0e
#156
b00000010 %
1e
#157
0e
#158
b00000001 %
1e
#159
0e
#160
b00000000 %
1e
#161
0e
#162
1$
b00001111 %
b00000000000000000000000000000001 '
b00 +
0-
0.
b00000000000000000000000000000001 /
b00000000000000000000000000000001 0
b00000000000000000000000000000001 4
b10 5
b00000000000000001 6
b00000000000000000000000000110000 8
b00000000000100000000010100010011 9
b00000000000000000000000000100100 ;
b00000000000000000000000000110100 <
b0010011 =
0@
b00 A
b00001 C
b01010 D
b00000000000000000000000000100100 F
1e
b00000000000000000000000000000001 i
0j
b00000000000000000000000000110100 k
b00000000000000000000000000110001 l
#163
0e
#164
0$
b00001110 %
1e
#165
0e
#166
b00001101 %
1e
#167
0e
#168
b00001100 %
1e
#169
0e
#170
b00001011 %
1e
#171
0e
#172
b00001010 %
1e
#173
0e
#174
b00001001 %
1e
#175
0e
#176
b00001000 %
1e
#177
0e
#178
b00000111 %
1e
#179
0e
#180
b00000110 %
1e
#181
0e
#182
b00000101 %
1e
#183
0e
#184
b00000100 %
1e
#185
0e
#186
b00000011 %
1e
#187
0e
#188
b00000010 %
1e
#189
0e
#190
b00000001 %
1e
#191
0e
#192
b00000000 %
1e
#193
0e
#194
1$
b00001111 %
b00000000000000000000000000000011 '
b00000000000000000000000000000011 /
b00000000000000000000000000000011 0
b00000000000000000000000000000011 4
b00000000000000011 6
b00000000000000000000000000110100 8
b00000000001100000000010100010011 9
b00000000000000000000000000000000 ;
b00000000000000000000000000111000 <
b00011 C
b00000000000000000000000000000001 O
1e
b00000000000000000000000000000011 i
1j
b00000000000000000000000000111000 k
b00000000000000000000000000110111 l
#195
0e
#196
0$
b00001110 %
1e
#197
0e
#198
b00001101 %
1e
#199
0e
#200
b00001100 %
1e
#201
0e
#202
b00001011 %
1e
#203
0e
#204
b00001010 %
1e
#205
0e
#206
b00001001 %
1e
#207
0e
#208
b00001000 %
1e
#209
0e
#210
b00000111 %
1e
#211
0e
#212
b00000110 %
1e
#213
0e
#214
b00000101 %
1e
#215
0e
#216
b00000100 %
1e
#217
0e
#218
b00000011 %
1e
#219
0e
#220
b00000010 %
1e
#221
0e
#222
b00000001 %
1e
#223
0e
#224
b00000000 %
1e
#225
0e
#226
1$
b00001111 %
b00000000000000000000000000000111 '
b00000000000000000000000000000111 /
b00000000000000000000000000000111 0
b00000000000000000000000000000111 4
b00000000000000111 6
b00000000000000000000000000111000 8
b00000000011100000000010100010011 9
b00000000000000000010000000000000 ;
b00000000000000000000000000111100 <
b00111 C
b00000000000000000000000000000011 O
1e
b00000000000000000000000000000001 h
b00000000000000000000000000000111 i
0j
b00000000000000000000000000111100 k
b00000000000000000000000000111111 l
#227
0e
#228
0$
b00001110 %
1e
#229
0e
#230
b00001101 %
1e
#231
0e
#232
b00001100 %
1e
#233
0e
#234
b00001011 %
1e
#235
0e
#236
b00001010 %
1e
#237
0e
#238
b00001001 %
1e
#239
0e
#240
b00001000 %
1e
#241
0e
#242
b00000111 %
1e
#243
0e
#244
b00000110 %
1e
#245
0e
#246
b00000101 %
1e
#247
0e
#248
b00000100 %
1e
#249
0e
#250
b00000011 %
1e
#251
0e
#252
b00000010 %
1e
#253
0e
#254
b00000001 %
1e
#255
0e
#256
b00000000 %
1e
#257
0e
#258
1$
b00001111 %
b00000000000000000000000000001111 '
b00000000000000000000000000001111 /
b00000000000000000000000000001111 0
b00000000000000000000000000001111 4
b00000000000001111 6
b00000000000000000000000000111100 8
b00000000111100000000010100010011 9
b00000000000000000000000000000000 ;
b00000000000000000000000001000000 <
b01111 C
b00000000000000000000000000000111 O
1e
b00000000000000000000000000000011 h
b00000000000000000000000000001111 i
1j
b00000000000000000000000001000000 k
b00000000000000000000000001001011 l
#259
0e
#260
0$
b00001110 %
1e
#261
0e
#262
b00001101 %
1e
#263
0e
#264
b00001100 %
1e
#265
0e
#266
b00001011 %
1e
#267
0e
#268
b00001010 %
1e
#269
0e
#270
b00001001 %
1e
#271
0e
#272
b00001000 %
1e
#273
0e
#274
b00000111 %
1e
#275
0e
#276
b00000110 %
1e
#277
0e
#278
b00000101 %
1e
#279
0e
#280
b00000100 %
1e
#281
0e
#282
b00000011 %
1e
#283
0e
#284
b00000010 %
1e
#285
0e
#286
b00000001 %
1e
#287
0e
#288
b00000000 %
1e
#289
0e
#290
1$
b00001111 %
b00000000000000000000000000011111 '
b00000000000000000000000000011111 /
b00000000000000000000000000011111 0
b00000000000000000000000000011111 4
b00000000000011111 6
b00000000000000000000000001000000 8
b00000001111100000000010100010011 9
b00000000000000000000000001000100 <
b11111 C
b00000000000000000000000000001111 O
1e
b00000000000000000000000000000111 h
b00000000000000000000000000011111 i
b00000000000000000000000001000100 k
b00000000000000000000000001011111 l
#291
0e
#292
0$
b00001110 %
1e
#293
0e
#294
b00001101 %
1e
#295
0e
#296
b00001100 %
1e
#297
0e
#298
b00001011 %
1e
#299
0e
#300
b00001010 %
1e
#301
0e
#302
b00001001 %
1e
#303
0e
#304
b00001000 %
1e
#305
0e
#306
b00000111 %
1e
#307
0e
#308
b00000110 %
1e
#309
0e
#310
b00000101 %
1e
#311
0e
#312
b00000100 %
1e
#313
0e
#314
b00000011 %
1e
#315
0e
#316
b00000010 %
1e
#317
0e
#318
b00000001 %
1e
#319
0e
#320
b00000000 %
1e
#321
0e
#322
1$
b00001111 %
b00000000000000000000000000111111 '
b00000000000000000000000000111111 /
b00000000000000000000000000111111 0
b00000000000000000000000000111111 4
b00000000000111111 6
b00000000000000000000000001000100 8
b00000011111100000000010100010011 9
b00000000000000000000000001001000 <
b00000000000000000000000000011111 O
1e
b00000000000000000000000000001111 h
b00000000000000000000000000111111 i
b00000000000000000000000001001000 k
b00000000000000000000000010000011 l
#323
0e
#324
0$
b00001110 %
1e
#325
0e
#326
b00001101 %
1e
#327
0e
#328
b00001100 %
1e
#329
0e
#330
b00001011 %
1e
#331
0e
#332
b00001010 %
1e
#333
0e
#334
b00001001 %
1e
#335
0e
#336
b00001000 %
1e
#337
0e
#338
b00000111 %
1e
#339
0e
#340
b00000110 %
1e
#341
0e
#342
b00000101 %
1e
#343
0e
#344
b00000100 %
1e
#345
0e
#346
b00000011 %
1e
#347
0e
#348
b00000010 %
1e
#349
0e
#350
b00000001 %
1e
#351
0e
#352
b00000000 %
1e
#353
0e
#354
1$
b00001111 %
b00000000000000000000000001111111 '
b00000000000000000000000001111111 /
b00000000000000000000000001111111 0
b00000000000000000000000001111111 4
b00000000001111111 6
b00000000000000000000000001001000 8
b00000111111100000000010100010011 9
b00000000000000000000000001001100 <
b00000000000000000000000000111111 O
1e
b00000000000000000000000000011111 h
b00000000000000000000000001111111 i
b00000000000000000000000001001100 k
b00000000000000000000000011000111 l
#355
0e
#356
0$
b00001110 %
1e
#357
0e
#358
b00001101 %
1e
#359
0e
#360
b00001100 %
1e
#361
0e
#362
b00001011 %
1e
#363
0e
#364
b00001010 %
1e
#365
0e
#366
b00001001 %
1e
#367
0e
#368
b00001000 %
1e
#369
0e
#370
b00000111 %
1e
#371
0e
#372
b00000110 %
1e
#373
0e
#374
b00000101 %
1e
#375
0e
#376
b00000100 %
1e
#377
0e
#378
b00000011 %
1e
#379
0e
#380
b00000010 %
1e
#381
0e
#382
b00000001 %
1e
#383
0e
#384
b00000000 %
1e
#385
0e
#386
1$
b00001111 %
b00000000000000000000000011111111 '
b00000000000000000000000011111111 /
b00000000000000000000000011111111 0
b00000000000000000000000011111111 4
b00000000011111111 6
b00000000000000000000000001001100 8
b00001111111100000000010100010011 9
b00000000000000000000000001010000 <
b00000000000000000000000001111111 O
1e
b00000000000000000000000000111111 h
b00000000000000000000000011111111 i
b00000000000000000000000001010000 k
b00000000000000000000000101001011 l
#387
0e
#388
0$
b00001110 %
1e
#389
0e
#390
b00001101 %
1e
#391
0e
#392
b00001100 %
1e
#393
0e
#394
b00001011 %
1e
#395
0e
#396
b00001010 %
1e
#397
0e
#398
b00001001 %
1e
#399
0e
#400
b00001000 %
1e
#401
0e
#402
b00000111 %
1e
#403
0e
#404
b00000110 %
1e
#405
0e
#406
b00000101 %
1e
#407
0e
#408
b00000100 %
1e
#409
0e
#410
b00000011 %
1e
#411
0e
#412
b00000010 %
1e
#413
0e
#414
b00000001 %
1e
#415
0e
#416
b00000000 %
1e
#417
0e
#418
1$
b00001111 %
b00000000000000000000000000000000 '
1,
1-
1.
b00000000000000000000000000000000 /
b00000000000000000000000000100100 0
b00000000000000000000000000100100 4
b00 5
b00000000000100100 6
b00000000000000000000000001010000 8
b00000000000000001000000001100111 9
b00000000000000000000000000100100 :
b00000000000000000000000001010100 <
b1100111 =
1@
b10 A
b00001 B
b00000 C
b00000 D
b00000000000000000000000011111111 O
1e
b00000000000000000000000001111111 h
b00000000000000000000000001010100 i
0j
b00000000000000000000000000100100 k
b00000000000000000000000000100100 l
#419
0e
#420
0$
b00001110 %
1e
#421
0e
#422
b00001101 %
1e
#423
0e
#424
b00001100 %
1e
#425
0e
#426
b00001011 %
1e
#427
0e
#428
b00001010 %
1e
#429
0e
#430
b00001001 %
1e
#431
0e
#432
b00001000 %
1e
#433
0e
#434
b00000111 %
1e
#435
0e
#436
b00000110 %
1e
#437
0e
#438
b00000101 %
1e
#439
0e
#440
b00000100 %
1e
#441
0e
#442
b00000011 %
1e
#443
0e
#444
b00000010 %
1e
#445
0e
#446
b00000001 %
1e
#447
0e
#448
b00000000 %
1e
#449
0e
#450
1$
b00001111 %
0,
0-
0.
b00000000000000000000000000000000 0
11
b00000000000000000000000000000000 4
b00000000000000000 6
b00000000000000000000000000100100 8
b00000000000000010010000010000011 9
b00000000000000000000000000000000 :
b00000000000000000000000000101000 <
b0000011 =
b010 >
0@
b00 A
b00010 B
b00001 D
1e
b00000000000000000000000011111111 h
b00000000000000000000000000000000 i
1j
b00000000000000000000000000101000 k
#451
0e
#452
0$
b00001110 %
1e
#453
0e
#454
b00001101 %
1e
#455
0e
#456
b00001100 %
1e
#457
0e
#458
b00001011 %
1e
#459
0e
#460
b00001010 %
1e
#461
0e
#462
b00001001 %
1e
#463
0e
#464
b00001000 %
1e
#465
0e
#466
b00000111 %
1e
#467
0e
#468
b00000110 %
1e
#469
0e
#470
b00000101 %
1e
#471
0e
#472
b00000100 %
1e
#473
0e
#474
b00000011 %
1e
#475
0e
#476
b00000010 %
1e
#477
0e
#478
b00000001 %
1e
#479
0e
#480
b00000000 %
1e
#481
0e
#482
1$
b00001111 %
b00000000000000000000000000000100 '
b00000000000000000000000000000100 /
b00000000000000000000000000000100 0
01
b00000000000000000000000000000100 4
b10 5
b00000000000000100 6
b00000000000000000000000000101000 8
b00000000010000010000000100010011 9
b00000000000000000000000000101100 <
b0010011 =
b000 >
b00100 C
b00010 D
b00000000000000000000000000000000 F
1e
b00000000000000000000000000000100 i
b00000000000000000000000000101100 k
b00000000000000000000000000101100 l
#483
0e
#484
0$
b00001110 %
1e
#485
0e
#486
b00001101 %
1e
#487
0e
#488
b00001100 %
1e
#489
0e
#490
b00001011 %
1e
#491
0e
#492
b00001010 %
1e
#493
0e
#494
b00001001 %
1e
#495
0e
#496
b00001000 %
1e
#497
0e
#498
b00000111 %
1e
#499
0e
#500
b00000110 %
1e
#501
0e
#502
b00000101 %
1e
#503
0e
#504
b00000100 %
1e
#505
0e
#506
b00000011 %
1e
#507
0e
#508
b00000010 %
1e
#509
0e
#510
b00000001 %
1e
#511
0e
#512
b00000000 %
1e
#513
0e
#514
1$
b00001111 %
b00000000000000000000000000000000 '
1,
1-
1.
b00000000000000000000000000000000 /
b00000000000000000000000000000000 0
b00000000000000000000000000000000 4
b00 5
b00000000000000000 6
b00000000000000000000000000101100 8
b00000000000000001000000001100111 9
b00000000000000000000000000110000 <
b1100111 =
1@
b10 A
b00001 B
b00000 C
b00000 D
b00000000000000000000000000000100 G
1e
b00000000000000000000000000110000 i
b00000000000000000000000000000000 k
b00000000000000000000000000000000 l
#515
0e
#516
0$
b00001110 %
1e
#517
0e
#518
b00001101 %
1e
#519
0e
#520
b00001100 %
1e
#521
0e
#522
b00001011 %
1e
#523
0e
#524
b00001010 %
1e
#525
0e
#526
b00001001 %
1e
#527
0e
#528
b00001000 %
1e
#529
0e
#530
b00000111 %
1e
#531
0e
#532
b00000110 %
1e
#533
0e
#534
b00000101 %
1e
#535
0e
#536
b00000100 %
1e
#537
0e
#538
b00000011 %
1e
#539
0e
#540
b00000010 %
1e
#541
0e
#542
b00000001 %
1e
#543
0e
#544
b00000000 %
1e
#545
0e
#546
1$
b00001111 %
b00000000000000000010000000000000 '
b100 )
b11 +
0,
0-
0.
b00000000000000000010000000000000 /
b00000000000000000010000000000000 0
b00000000000000000010000000000000 4
b11 5
b00010000000000000 6
b00000000000000000000000000000000 8
b00000000000000000010001110110111 9
b00000000000000000000000000000100 <
b0110111 =
b010 >
b00000 B
b00111 D
1e
b00000000000000000010000000000000 i
0j
b00000000000000000000000000000100 k
b00000000000000000010000000000000 l
#547
0e
#548
0$
b00001110 %
1e
#549
0e
#550
b00001101 %
1e
#551
0e
#552
b00001100 %
1e
#553
0e
#554
b00001011 %
1e
#555
0e
#556
b00001010 %
1e
#557
0e
#558
b00001001 %
1e
#559
0e
#560
b00001000 %
1e
#561
0e
#562
b00000111 %
1e
#563
0e
#564
b00000110 %
1e
#565
0e
#566
b00000101 %
1e
#567
0e
#568
b00000100 %
1e
#569
0e
#570
b00000011 %
1e
#571
0e
#572
b00000010 %
1e
#573
0e
#574
b00000001 %
1e
#575
0e
#576
b00000000 %
1e
#577
0e
