tb/f1_program/f1.vcd
$version Generated by VerilatedVcd $end
$date Fri Dec 13 17:41:59 2024 $end
$timescale 1ps $end

 $scope module TOP $end
  $var wire 32 g a0 [31:0] $end
  $var wire  1 d clk $end
  $var wire  1 e rst $end
  $var wire  1 f trigger $end
  $scope module f1 $end
   $var wire 32 n DATA_WIDTH [31:0] $end
   $var wire 32 g a0 [31:0] $end
   $var wire  1 d clk $end
   $var wire  1 # delayed_clk $end
   $var wire  4 $ random_delay [3:0] $end
   $var wire  1 e rst $end
   $var wire 32 & tmp_a0 [31:0] $end
   $var wire  1 f trigger $end
   $scope module clktick $end
    $var wire 32 n DATA_WIDTH [31:0] $end
    $var wire 32 o N [31:0] $end
    $var wire 32 & a0 [31:0] $end
    $var wire  1 d clk_i $end
    $var wire  1 # clk_o $end
    $var wire 32 % count [31:0] $end
    $var wire  4 $ random_delay [3:0] $end
    $var wire  1 e rst $end
   $upscope $end
   $scope module fsm $end
    $var wire 32 g a0 [31:0] $end
    $var wire  1 d clk $end
    $var wire 32 h current [31:0] $end
    $var wire 32 i next [31:0] $end
    $var wire  1 e rst $end
    $var wire 32 & tmp_a0 [31:0] $end
   $upscope $end
   $scope module lfsr $end
    $var wire  1 d clk $end
    $var wire  4 $ data_out [3:0] $end
    $var wire  4 $ sreg [4:1] $end
   $upscope $end
   $scope module top $end
    $var wire 32 n ADDR_WIDTH [31:0] $end
    $var wire 32 n DATA_WIDTH [31:0] $end
    $var wire 32 n INSTR_WIDTH [31:0] $end
    $var wire 32 p MEM_ADDR_WIDTH [31:0] $end
    $var wire 32 r OFFSET [31:0] $end
    $var wire 32 q REG_DATA_WIDTH [31:0] $end
    $var wire 32 & a0 [31:0] $end
    $var wire  3 V aluControl [2:0] $end
    $var wire 32 ] aluResult [31:0] $end
    $var wire  1 W aluSrc $end
    $var wire 32 m branchPC [31:0] $end
    $var wire  1 # clk $end
    $var wire 32 T immOp [31:0] $end
    $var wire  2 X immSrc [1:0] $end
    $var wire 32 + incPC [31:0] $end
    $var wire 32 ( instr [31:0] $end
    $var wire  1 Y jalrSrc $end
    $var wire  1 Z jumpSrc $end
    $var wire  1 _ memWrite $end
    $var wire 32 l nextPC [31:0] $end
    $var wire 32 ' pc [31:0] $end
    $var wire  1 [ pcSrc $end
    $var wire 32 ` readData [31:0] $end
    $var wire 32 * regOp2 [31:0] $end
    $var wire  1 U regWrite $end
    $var wire 32 a result [31:0] $end
    $var wire  1 ^ resultSrc $end
    $var wire  1 e rst $end
    $var wire 32 ) srcA [31:0] $end
    $var wire 32 \ srcB [31:0] $end
    $var wire  1 f trigger $end
    $var wire 32 j wd3 [31:0] $end
    $var wire  1 k zero $end
    $scope module alu $end
     $var wire 32 n DATA_WIDTH [31:0] $end
     $var wire  3 V aluControl [2:0] $end
     $var wire 32 ] aluResult [31:0] $end
     $var wire 32 ) srcA [31:0] $end
     $var wire 32 \ srcB [31:0] $end
    $upscope $end
    $scope module aluMux $end
     $var wire 32 n DATA_WIDTH [31:0] $end
     $var wire  1 W aluSrc $end
     $var wire 32 T immOp [31:0] $end
     $var wire 32 * regOp2 [31:0] $end
     $var wire 32 \ srcB [31:0] $end
    $upscope $end
    $scope module branchUnit $end
     $var wire 32 n DATA_WIDTH [31:0] $end
     $var wire  3 V aluControl [2:0] $end
     $var wire 32 ) srcA [31:0] $end
     $var wire 32 * srcB [31:0] $end
     $var wire  1 k zero $end
    $upscope $end
    $scope module controlUnit $end
     $var wire  3 V aluControl [2:0] $end
     $var wire  2 b aluOp [1:0] $end
     $var wire  1 W aluSrc $end
     $var wire  3 - funct3 [2:0] $end
     $var wire  1 . funct7 $end
     $var wire  2 X immSrc [1:0] $end
     $var wire  1 Y jalrSrc $end
     $var wire  1 Z jumpSrc $end
     $var wire  1 _ memWrite $end
     $var wire  7 , op [6:0] $end
     $var wire  1 [ pcSrc $end
     $var wire  1 U regWrite $end
     $var wire  1 ^ resultSrc $end
     $var wire  1 k zero $end
     $scope module aluDecoder $end
      $var wire  3 V aluControl [2:0] $end
      $var wire  2 b aluOp [1:0] $end
      $var wire  3 - funct3 [2:0] $end
      $var wire  1 . funct7 $end
      $var wire  1 / op $end
      $var wire  2 0 opfunct7 [1:0] $end
     $upscope $end
     $scope module mainDecoder $end
      $var wire  2 b aluOp [1:0] $end
      $var wire  1 W aluSrc $end
      $var wire  2 X immSrc [1:0] $end
      $var wire  1 Y jalrSrc $end
      $var wire  1 Z jumpSrc $end
      $var wire  1 _ memWrite $end
      $var wire  7 , op [6:0] $end
      $var wire  1 [ pcSrc $end
      $var wire  1 U regWrite $end
      $var wire  1 ^ resultSrc $end
      $var wire  1 k zero $end
     $upscope $end
    $upscope $end
    $scope module dataMemory $end
     $var wire 32 p ADDR_WIDTH [31:0] $end
     $var wire 17 c ALUResult [16:0] $end
     $var wire 32 n DATA_WIDTH [31:0] $end
     $var wire  1 _ MemWrite $end
     $var wire 32 ` ReadData [31:0] $end
     $var wire  3 - SizeCtr [2:0] $end
     $var wire 32 * WriteData [31:0] $end
     $var wire  1 # clk $end
    $upscope $end
    $scope module extend $end
     $var wire 32 n DATA_WIDTH [31:0] $end
     $var wire 32 n INSTR_WIDTH [31:0] $end
     $var wire 32 T immExt [31:0] $end
     $var wire  2 X immSrc [1:0] $end
     $var wire 32 ( instruction [31:0] $end
     $var wire  1 Z jumpSrc $end
    $upscope $end
    $scope module extendPC $end
     $var wire 32 n ADDR_WIDTH [31:0] $end
     $var wire 32 n DATA_WIDTH [31:0] $end
     $var wire 32 m branchPC [31:0] $end
     $var wire 32 T immOp [31:0] $end
     $var wire  1 Y jalrSrc $end
     $var wire 32 ' pc [31:0] $end
     $var wire 32 a result [31:0] $end
    $upscope $end
    $scope module instrMemory $end
     $var wire 32 n ADDR_WIDTH [31:0] $end
     $var wire 32 n INSTR_WIDTH [31:0] $end
     $var wire 32 ( instr [31:0] $end
     $var wire 32 ' pc [31:0] $end
    $upscope $end
    $scope module jumpMux $end
     $var wire 32 j ALUout [31:0] $end
     $var wire 32 n DATA_WIDTH [31:0] $end
     $var wire 32 + incPC [31:0] $end
     $var wire  1 Z jumpSrc $end
     $var wire 32 a result [31:0] $end
    $upscope $end
    $scope module pcMux $end
     $var wire 32 n ADDR_WIDTH [31:0] $end
     $var wire  1 [ PCsrc $end
     $var wire 32 m branchPC [31:0] $end
     $var wire 32 + incPC [31:0] $end
     $var wire 32 l nextPC [31:0] $end
    $upscope $end
    $scope module pcReg $end
     $var wire 32 n ADDR_WIDTH [31:0] $end
     $var wire 32 r OFFSET [31:0] $end
     $var wire  1 # clk $end
     $var wire 32 + incPC [31:0] $end
     $var wire 32 l nextPC [31:0] $end
     $var wire 32 ' pc [31:0] $end
     $var wire  1 e rst $end
    $upscope $end
    $scope module regFile $end
     $var wire 32 ) ALUop1 [31:0] $end
     $var wire 32 j ALUout [31:0] $end
     $var wire 32 n DATA_WIDTH [31:0] $end
     $var wire 32 q REG_DATA_WIDTH [31:0] $end
     $var wire  1 U RegWrite $end
     $var wire 32 & a0 [31:0] $end
     $var wire  1 # clk $end
     $var wire  5 3 rd [4:0] $end
     $var wire 32 * regOp2 [31:0] $end
     $var wire 32 4 rom_array[0] [31:0] $end
     $var wire 32 > rom_array[10] [31:0] $end
     $var wire 32 ? rom_array[11] [31:0] $end
     $var wire 32 @ rom_array[12] [31:0] $end
     $var wire 32 A rom_array[13] [31:0] $end
     $var wire 32 B rom_array[14] [31:0] $end
     $var wire 32 C rom_array[15] [31:0] $end
     $var wire 32 D rom_array[16] [31:0] $end
     $var wire 32 E rom_array[17] [31:0] $end
     $var wire 32 F rom_array[18] [31:0] $end
     $var wire 32 G rom_array[19] [31:0] $end
     $var wire 32 5 rom_array[1] [31:0] $end
     $var wire 32 H rom_array[20] [31:0] $end
     $var wire 32 I rom_array[21] [31:0] $end
     $var wire 32 J rom_array[22] [31:0] $end
     $var wire 32 K rom_array[23] [31:0] $end
     $var wire 32 L rom_array[24] [31:0] $end
     $var wire 32 M rom_array[25] [31:0] $end
     $var wire 32 N rom_array[26] [31:0] $end
     $var wire 32 O rom_array[27] [31:0] $end
     $var wire 32 P rom_array[28] [31:0] $end
     $var wire 32 Q rom_array[29] [31:0] $end
     $var wire 32 6 rom_array[2] [31:0] $end
     $var wire 32 R rom_array[30] [31:0] $end
     $var wire 32 S rom_array[31] [31:0] $end
     $var wire 32 7 rom_array[3] [31:0] $end
     $var wire 32 8 rom_array[4] [31:0] $end
     $var wire 32 9 rom_array[5] [31:0] $end
     $var wire 32 : rom_array[6] [31:0] $end
     $var wire 32 ; rom_array[7] [31:0] $end
     $var wire 32 < rom_array[8] [31:0] $end
     $var wire 32 = rom_array[9] [31:0] $end
     $var wire  5 1 rs1 [4:0] $end
     $var wire  5 2 rs2 [4:0] $end
    $upscope $end
    $scope module resultMux $end
     $var wire 32 ] ALUResult [31:0] $end
     $var wire 32 n DATA_WIDTH [31:0] $end
     $var wire 32 ` ReadData [31:0] $end
     $var wire 32 a Result [31:0] $end
     $var wire  1 ^ ResultSrc $end
    $upscope $end
   $upscope $end
  $upscope $end
 $upscope $end
$enddefinitions $end


#0
0#
b0000 $
b00000000000000000000000000000000 %
b00000000000000000000000000000000 &
b00000000000000000000000000000000 '
b00000000000000000000000000000000 (
b00000000000000000000000000000000 )
b00000000000000000000000000000000 *
b00000000000000000000000000000100 +
b0000000 ,
b000 -
0.
0/
b00 0
b00000 1
b00000 2
b00000 3
b00000000000000000000000000000000 4
b00000000000000000000000000000000 5
b00000000000000000000000000000000 6
b00000000000000000000000000000000 7
b00000000000000000000000000000000 8
b00000000000000000000000000000000 9
b00000000000000000000000000000000 :
b00000000000000000000000000000000 ;
b00000000000000000000000000000000 <
b00000000000000000000000000000000 =
b00000000000000000000000000000000 >
b00000000000000000000000000000000 ?
b00000000000000000000000000000000 @
b00000000000000000000000000000000 A
b00000000000000000000000000000000 B
b00000000000000000000000000000000 C
b00000000000000000000000000000000 D
b00000000000000000000000000000000 E
b00000000000000000000000000000000 F
b00000000000000000000000000000000 G
b00000000000000000000000000000000 H
b00000000000000000000000000000000 I
b00000000000000000000000000000000 J
b00000000000000000000000000000000 K
b00000000000000000000000000000000 L
b00000000000000000000000000000000 M
b00000000000000000000000000000000 N
b00000000000000000000000000000000 O
b00000000000000000000000000000000 P
b00000000000000000000000000000000 Q
b00000000000000000000000000000000 R
b00000000000000000000000000000000 S
b00000000000000000000000000000000 T
0U
b000 V
0W
b00 X
0Y
0Z
0[
b00000000000000000000000000000000 \
b00000000000000000000000000000000 ]
0^
0_
b00000000000000000000000000000000 `
b00000000000000000000000000000000 a
b00 b
b00000000000000000 c
1d
0e
1f
b00000000000000000000000000000000 g
b00000000000000000000000000000000 h
b00000000000000000000000000000000 i
b00000000000000000000000000000000 j
1k
b00000000000000000000000000000100 l
b00000000000000000000000000000000 m
b00000000000000000000000000100000 n
b00000000000000000000000000100110 o
b00000000000000000000000000010001 p
b00000000000000000000000000000101 q
b00000000000000000000000000000100 r
#1
b0001 $
b00000000000100000000001010010011 (
b0010011 ,
b00001 2
b00101 3
b00000000000000000000000000000001 T
1U
1W
b00000000000000000000000000000001 \
b00000000000000000000000000000001 ]
b00000000000000000000000000000001 a
b10 b
b00000000000000001 c
0d
b00000000000000000000000000000001 j
b00000000000000000000000000000001 m
#2
1#
b0010 $
b00000000000000000000000000100110 %
b00000000000000000000000000000100 '
b00000000100000000000000011101111 (
b00000000000000000000000000001000 +
b1101111 ,
1/
b10 0
b01000 2
b00001 3
b00000000000000000000000000000001 9
b00000000000000000000000000001000 T
b11 X
1Z
1[
b00000000000000000000000000001000 \
b00000000000000000000000000001000 ]
b00000000000000000000000000001000 a
b00 b
b00000000000001000 c
1d
b00000000000000000000000000001000 j
b00000000000000000000000000001100 l
b00000000000000000000000000001100 m
#3
0d
#4
0#
b0100 $
b00000000000000000000000000100101 %
1d
#5
0d
#6
b1001 $
b00000000000000000000000000100100 %
1d
#7
0d
#8
b0011 $
b00000000000000000000000000100011 %
1d
#9
0d
#10
b0110 $
b00000000000000000000000000100010 %
1d
#11
0d
#12
b1101 $
b00000000000000000000000000100001 %
1d
#13
0d
#14
b1010 $
b00000000000000000000000000100000 %
1d
#15
0d
#16
b0101 $
b00000000000000000000000000011111 %
1d
#17
0d
#18
b1011 $
b00000000000000000000000000011110 %
1d
#19
0d
#20
b0111 $
b00000000000000000000000000011101 %
1d
#21
0d
#22
b1111 $
b00000000000000000000000000011100 %
1d
#23
0d
#24
b1110 $
b00000000000000000000000000011011 %
1d
#25
0d
#26
b1100 $
b00000000000000000000000000011010 %
1d
#27
0d
#28
b1000 $
b00000000000000000000000000011001 %
1d
#29
0d
#30
b0001 $
b00000000000000000000000000011000 %
1d
#31
0d
#32
b0010 $
b00000000000000000000000000010111 %
1d
#33
0d
#34
b0100 $
b00000000000000000000000000010110 %
1d
#35
0d
#36
b1001 $
b00000000000000000000000000010101 %
1d
#37
0d
#38
b0011 $
b00000000000000000000000000010100 %
1d
#39
0d
#40
b0110 $
b00000000000000000000000000010011 %
1d
#41
0d
#42
b1101 $
b00000000000000000000000000010010 %
1d
#43
0d
#44
b1010 $
b00000000000000000000000000010001 %
1d
#45
0d
#46
b0101 $
b00000000000000000000000000010000 %
1d
#47
0d
#48
b1011 $
b00000000000000000000000000001111 %
1d
#49
0d
#50
b0111 $
b00000000000000000000000000001110 %
1d
#51
0d
#52
b1111 $
b00000000000000000000000000001101 %
1d
#53
0d
#54
b1110 $
b00000000000000000000000000001100 %
1d
#55
0d
#56
b1100 $
b00000000000000000000000000001011 %
1d
#57
0d
#58
b1000 $
b00000000000000000000000000001010 %
1d
#59
0d
#60
b0001 $
b00000000000000000000000000001001 %
1d
#61
0d
#62
b0010 $
b00000000000000000000000000001000 %
1d
#63
0d
#64
b0100 $
b00000000000000000000000000000111 %
1d
#65
0d
#66
b1001 $
b00000000000000000000000000000110 %
1d
#67
0d
#68
b0011 $
b00000000000000000000000000000101 %
1d
#69
0d
#70
b0110 $
b00000000000000000000000000000100 %
1d
#71
0d
#72
b1101 $
b00000000000000000000000000000011 %
1d
#73
0d
#74
b1010 $
b00000000000000000000000000000010 %
1d
#75
0d
#76
b0101 $
b00000000000000000000000000000001 %
1d
#77
0d
#78
b1011 $
b00000000000000000000000000000000 %
1d
#79
0d
#80
1#
b0111 $
b00000000000000000000000000100110 %
b00000000000000000000000000001100 '
b00000000000100000000010100010011 (
b00000000000000000000000000001000 *
b00000000000000000000000000010000 +
b0010011 ,
0/
b00 0
b00001 2
b01010 3
b00000000000000000000000000001000 5
b00000000000000000000000000000001 T
b00 X
0Z
0[
b00000000000000000000000000000001 \
b00000000000000000000000000000001 ]
b00000000000000000000000000000001 a
b10 b
b00000000000000001 c
1d
b00000000000000000000000000000001 j
0k
b00000000000000000000000000010000 l
b00000000000000000000000000001101 m
#81
0d
#82
0#
b1111 $
b00000000000000000000000000100101 %
1d
#83
0d
#84
b1110 $
b00000000000000000000000000100100 %
1d
#85
0d
#86
b1100 $
b00000000000000000000000000100011 %
1d
#87
0d
#88
b1000 $
b00000000000000000000000000100010 %
1d
#89
0d
#90
b0001 $
b00000000000000000000000000100001 %
1d
#91
0d
#92
b0010 $
b00000000000000000000000000100000 %
1d
#93
0d
#94
b0100 $
b00000000000000000000000000011111 %
1d
#95
0d
#96
b1001 $
b00000000000000000000000000011110 %
1d
#97
0d
#98
b0011 $
b00000000000000000000000000011101 %
1d
#99
0d
#100
b0110 $
b00000000000000000000000000011100 %
1d
#101
0d
#102
b1101 $
b00000000000000000000000000011011 %
1d
#103
0d
#104
b1010 $
b00000000000000000000000000011010 %
1d
#105
0d
#106
b0101 $
b00000000000000000000000000011001 %
1d
#107
0d
#108
b1011 $
b00000000000000000000000000011000 %
1d
#109
0d
#110
b0111 $
b00000000000000000000000000010111 %
1d
#111
0d
#112
b1111 $
b00000000000000000000000000010110 %
1d
#113
0d
#114
b1110 $
b00000000000000000000000000010101 %
1d
#115
0d
#116
b1100 $
b00000000000000000000000000010100 %
1d
#117
0d
#118
b1000 $
b00000000000000000000000000010011 %
1d
#119
0d
#120
b0001 $
b00000000000000000000000000010010 %
1d
#121
0d
#122
b0010 $
b00000000000000000000000000010001 %
1d
#123
0d
#124
b0100 $
b00000000000000000000000000010000 %
1d
#125
0d
#126
b1001 $
b00000000000000000000000000001111 %
1d
#127
0d
#128
b0011 $
b00000000000000000000000000001110 %
1d
#129
0d
#130
b0110 $
b00000000000000000000000000001101 %
1d
#131
0d
#132
b1101 $
b00000000000000000000000000001100 %
1d
#133
0d
#134
b1010 $
b00000000000000000000000000001011 %
1d
#135
0d
#136
b0101 $
b00000000000000000000000000001010 %
1d
#137
0d
#138
b1011 $
b00000000000000000000000000001001 %
1d
#139
0d
#140
b0111 $
b00000000000000000000000000001000 %
1d
#141
0d
#142
b1111 $
b00000000000000000000000000000111 %
1d
#143
0d
#144
b1110 $
b00000000000000000000000000000110 %
1d
#145
0d
#146
b1100 $
b00000000000000000000000000000101 %
1d
#147
0d
#148
b1000 $
b00000000000000000000000000000100 %
1d
#149
0d
#150
b0001 $
b00000000000000000000000000000011 %
1d
#151
0d
#152
b0010 $
b00000000000000000000000000000010 %
1d
#153
0d
#154
b0100 $
b00000000000000000000000000000001 %
1d
#155
0d
#156
b1001 $
b00000000000000000000000000000000 %
1d
#157
0d
#158
1#
b0011 $
b00000000000000000000000000100110 %
b00000000000000000000000000010000 '
b00000000001100000000010100010011 (
b00000000000000000000000000000000 *
b00000000000000000000000000010100 +
b00011 2
b00000000000000000000000000000001 >
b00000000000000000000000000000011 T
b00000000000000000000000000000011 \
b00000000000000000000000000000011 ]
b00000000000000000000000000000011 a
b00000000000000011 c
1d
b00000000000000000000000000000011 j
1k
b00000000000000000000000000010100 l
b00000000000000000000000000010011 m
#159
0d
#160
0#
b0110 $
b00000000000000000000000000100101 %
1d
#161
0d
#162
b1101 $
b00000000000000000000000000100100 %
1d
#163
0d
#164
b1010 $
b00000000000000000000000000100011 %
1d
#165
0d
#166
b0101 $
b00000000000000000000000000100010 %
1d
#167
0d
#168
b1011 $
b00000000000000000000000000100001 %
1d
#169
0d
#170
b0111 $
b00000000000000000000000000100000 %
1d
#171
0d
#172
b1111 $
b00000000000000000000000000011111 %
1d
#173
0d
#174
b1110 $
b00000000000000000000000000011110 %
1d
#175
0d
#176
b1100 $
b00000000000000000000000000011101 %
1d
#177
0d
#178
b1000 $
b00000000000000000000000000011100 %
1d
#179
0d
#180
b0001 $
b00000000000000000000000000011011 %
1d
#181
0d
#182
b0010 $
b00000000000000000000000000011010 %
1d
#183
0d
#184
b0100 $
b00000000000000000000000000011001 %
1d
#185
0d
#186
b1001 $
b00000000000000000000000000011000 %
1d
#187
0d
#188
b0011 $
b00000000000000000000000000010111 %
1d
#189
0d
#190
b0110 $
b00000000000000000000000000010110 %
1d
#191
0d
#192
b1101 $
b00000000000000000000000000010101 %
1d
#193
0d
#194
b1010 $
b00000000000000000000000000010100 %
1d
#195
0d
#196
b0101 $
b00000000000000000000000000010011 %
1d
#197
0d
#198
b1011 $
b00000000000000000000000000010010 %
1d
#199
0d
#200
b0111 $
b00000000000000000000000000010001 %
1d
#201
0d
#202
b1111 $
b00000000000000000000000000010000 %
1d
#203
0d
#204
b1110 $
b00000000000000000000000000001111 %
1d
#205
0d
#206
b1100 $
b00000000000000000000000000001110 %
1d
#207
0d
#208
b1000 $
b00000000000000000000000000001101 %
1d
#209
0d
#210
b0001 $
b00000000000000000000000000001100 %
1d
#211
0d
#212
b0010 $
b00000000000000000000000000001011 %
1d
#213
0d
#214
b0100 $
b00000000000000000000000000001010 %
1d
#215
0d
#216
b1001 $
b00000000000000000000000000001001 %
1d
#217
0d
#218
b0011 $
b00000000000000000000000000001000 %
1d
#219
0d
#220
b0110 $
b00000000000000000000000000000111 %
1d
#221
0d
#222
b1101 $
b00000000000000000000000000000110 %
1d
#223
0d
#224
b1010 $
b00000000000000000000000000000101 %
1d
#225
0d
#226
b0101 $
b00000000000000000000000000000100 %
1d
#227
0d
#228
b1011 $
b00000000000000000000000000000011 %
1d
#229
0d
#230
b0111 $
b00000000000000000000000000000010 %
1d
#231
0d
#232
b1111 $
b00000000000000000000000000000001 %
1d
#233
0d
#234
b1110 $
b00000000000000000000000000000000 %
1d
#235
0d
#236
1#
b1100 $
b00000000000000000000000000100110 %
b00000000000000000000000000000001 &
b00000000000000000000000000010100 '
b00000000011100000000010100010011 (
b00000000000000000000000000011000 +
b00111 2
b00000000000000000000000000000011 >
b00000000000000000000000000000111 T
b00000000000000000000000000000111 \
b00000000000000000000000000000111 ]
b00000000000000000000000000000111 a
b00000000000000111 c
1d
b00000000000000000000000000000001 i
b00000000000000000000000000000111 j
b00000000000000000000000000011000 l
b00000000000000000000000000011011 m
#237
0d
#238
0#
b1000 $
b00000000000000000000000000100101 %
1d
b00000000000000000000000000000001 g
b00000000000000000000000000000001 h
#239
0d
#240
b0001 $
b00000000000000000000000000100100 %
1d
#241
0d
#242
b0010 $
b00000000000000000000000000100011 %
1d
#243
0d
#244
b0100 $
b00000000000000000000000000100010 %
1d
#245
0d
#246
b1001 $
b00000000000000000000000000100001 %
1d
#247
0d
#248
b0011 $
b00000000000000000000000000100000 %
1d
#249
0d
#250
b0110 $
b00000000000000000000000000011111 %
1d
#251
0d
#252
b1101 $
b00000000000000000000000000011110 %
1d
#253
0d
#254
b1010 $
b00000000000000000000000000011101 %
1d
#255
0d
#256
b0101 $
b00000000000000000000000000011100 %
1d
#257
0d
#258
b1011 $
b00000000000000000000000000011011 %
1d
#259
0d
#260
b0111 $
b00000000000000000000000000011010 %
1d
#261
0d
#262
b1111 $
b00000000000000000000000000011001 %
1d
#263
0d
#264
b1110 $
b00000000000000000000000000011000 %
1d
#265
0d
#266
b1100 $
b00000000000000000000000000010111 %
1d
#267
0d
#268
b1000 $
b00000000000000000000000000010110 %
1d
#269
0d
#270
b0001 $
b00000000000000000000000000010101 %
1d
#271
0d
#272
b0010 $
b00000000000000000000000000010100 %
1d
#273
0d
#274
b0100 $
b00000000000000000000000000010011 %
1d
#275
0d
#276
b1001 $
b00000000000000000000000000010010 %
1d
#277
0d
#278
b0011 $
b00000000000000000000000000010001 %
1d
#279
0d
#280
b0110 $
b00000000000000000000000000010000 %
1d
#281
0d
#282
b1101 $
b00000000000000000000000000001111 %
1d
#283
0d
#284
b1010 $
b00000000000000000000000000001110 %
1d
#285
0d
#286
b0101 $
b00000000000000000000000000001101 %
1d
#287
0d
#288
b1011 $
b00000000000000000000000000001100 %
1d
#289
0d
#290
b0111 $
b00000000000000000000000000001011 %
1d
#291
0d
#292
b1111 $
b00000000000000000000000000001010 %
1d
#293
0d
#294
b1110 $
b00000000000000000000000000001001 %
1d
#295
0d
#296
b1100 $
b00000000000000000000000000001000 %
1d
#297
0d
#298
b1000 $
b00000000000000000000000000000111 %
1d
#299
0d
#300
b0001 $
b00000000000000000000000000000110 %
1d
#301
0d
#302
b0010 $
b00000000000000000000000000000101 %
1d
#303
0d
#304
b0100 $
b00000000000000000000000000000100 %
1d
#305
0d
#306
b1001 $
b00000000000000000000000000000011 %
1d
#307
0d
#308
b0011 $
b00000000000000000000000000000010 %
1d
#309
0d
#310
b0110 $
b00000000000000000000000000000001 %
1d
#311
0d
#312
b1101 $
b00000000000000000000000000000000 %
1d
#313
0d
#314
1#
b1010 $
b00000000000000000000000000100110 %
b00000000000000000000000000000011 &
b00000000000000000000000000011000 '
b00000000111100000000010100010011 (
b00000000000000000000000000011100 +
b01111 2
b00000000000000000000000000000111 >
b00000000000000000000000000001111 T
b00000000000000000000000000001111 \
b00000000000000000000000000001111 ]
b00000000000000000000000000001111 a
b00000000000001111 c
1d
b00000000000000000000000000000011 g
b00000000000000000000000000001111 j
b00000000000000000000000000011100 l
b00000000000000000000000000100111 m
#315
0d
#316
0#
b0101 $
b00000000000000000000000000100101 %
1d
#317
0d
#318
b1011 $
b00000000000000000000000000100100 %
1d
#319
0d
#320
b0111 $
b00000000000000000000000000100011 %
1d
#321
0d
#322
b1111 $
b00000000000000000000000000100010 %
1d
#323
0d
#324
b1110 $
b00000000000000000000000000100001 %
1d
#325
0d
#326
b1100 $
b00000000000000000000000000100000 %
1d
#327
0d
#328
b1000 $
b00000000000000000000000000011111 %
1d
#329
0d
#330
b0001 $
b00000000000000000000000000011110 %
1d
#331
0d
#332
b0010 $
b00000000000000000000000000011101 %
1d
#333
0d
#334
b0100 $
b00000000000000000000000000011100 %
1d
#335
0d
#336
b1001 $
b00000000000000000000000000011011 %
1d
#337
0d
#338
b0011 $
b00000000000000000000000000011010 %
1d
#339
0d
#340
b0110 $
b00000000000000000000000000011001 %
1d
#341
0d
#342
b1101 $
b00000000000000000000000000011000 %
1d
#343
0d
#344
b1010 $
b00000000000000000000000000010111 %
1d
#345
0d
#346
b0101 $
b00000000000000000000000000010110 %
1d
#347
0d
#348
b1011 $
b00000000000000000000000000010101 %
1d
#349
0d
#350
b0111 $
b00000000000000000000000000010100 %
1d
#351
0d
#352
b1111 $
b00000000000000000000000000010011 %
1d
#353
0d
#354
b1110 $
b00000000000000000000000000010010 %
1d
#355
0d
#356
b1100 $
b00000000000000000000000000010001 %
1d
#357
0d
#358
b1000 $
b00000000000000000000000000010000 %
1d
#359
0d
#360
b0001 $
b00000000000000000000000000001111 %
1d
#361
0d
#362
b0010 $
b00000000000000000000000000001110 %
1d
#363
0d
#364
b0100 $
b00000000000000000000000000001101 %
1d
#365
0d
#366
b1001 $
b00000000000000000000000000001100 %
1d
#367
0d
#368
b0011 $
b00000000000000000000000000001011 %
1d
#369
0d
#370
b0110 $
b00000000000000000000000000001010 %
1d
#371
0d
#372
b1101 $
b00000000000000000000000000001001 %
1d
#373
0d
#374
b1010 $
b00000000000000000000000000001000 %
1d
#375
0d
#376
b0101 $
b00000000000000000000000000000111 %
1d
#377
0d
#378
b1011 $
b00000000000000000000000000000110 %
1d
#379
0d
#380
b0111 $
b00000000000000000000000000000101 %
1d
#381
0d
#382
b1111 $
b00000000000000000000000000000100 %
1d
#383
0d
#384
b1110 $
b00000000000000000000000000000011 %
1d
#385
0d
#386
b1100 $
b00000000000000000000000000000010 %
1d
#387
0d
#388
b1000 $
b00000000000000000000000000000001 %
1d
#389
0d
#390
b0001 $
b00000000000000000000000000000000 %
1d
#391
0d
#392
1#
b0010 $
b00000000000000000000000000100110 %
b00000000000000000000000000000111 &
b00000000000000000000000000011100 '
b00000001111100000000010100010011 (
b00000000000000000000000000100000 +
b11111 2
b00000000000000000000000000001111 >
b00000000000000000000000000011111 T
b00000000000000000000000000011111 \
b00000000000000000000000000011111 ]
b00000000000000000000000000011111 a
b00000000000011111 c
1d
b00000000000000000000000000000111 g
b00000000000000000000000000011111 j
b00000000000000000000000000100000 l
b00000000000000000000000000111011 m
#393
0d
#394
0#
b0100 $
b00000000000000000000000000100101 %
1d
#395
0d
#396
b1001 $
b00000000000000000000000000100100 %
1d
#397
0d
#398
b0011 $
b00000000000000000000000000100011 %
1d
#399
0d
#400
b0110 $
b00000000000000000000000000100010 %
1d
#401
0d
#402
b1101 $
b00000000000000000000000000100001 %
1d
#403
0d
#404
b1010 $
b00000000000000000000000000100000 %
1d
#405
0d
#406
b0101 $
b00000000000000000000000000011111 %
1d
#407
0d
#408
b1011 $
b00000000000000000000000000011110 %
1d
#409
0d
#410
b0111 $
b00000000000000000000000000011101 %
1d
#411
0d
#412
b1111 $
b00000000000000000000000000011100 %
1d
#413
0d
#414
b1110 $
b00000000000000000000000000011011 %
1d
#415
0d
#416
b1100 $
b00000000000000000000000000011010 %
1d
#417
0d
#418
b1000 $
b00000000000000000000000000011001 %
1d
#419
0d
#420
b0001 $
b00000000000000000000000000011000 %
1d
#421
0d
#422
b0010 $
b00000000000000000000000000010111 %
1d
#423
0d
#424
b0100 $
b00000000000000000000000000010110 %
1d
#425
0d
#426
b1001 $
b00000000000000000000000000010101 %
1d
#427
0d
#428
b0011 $
b00000000000000000000000000010100 %
1d
#429
0d
#430
b0110 $
b00000000000000000000000000010011 %
1d
#431
0d
#432
b1101 $
b00000000000000000000000000010010 %
1d
#433
0d
#434
b1010 $
b00000000000000000000000000010001 %
1d
#435
0d
#436
b0101 $
b00000000000000000000000000010000 %
1d
#437
0d
#438
b1011 $
b00000000000000000000000000001111 %
1d
#439
0d
#440
b0111 $
b00000000000000000000000000001110 %
1d
#441
0d
#442
b1111 $
b00000000000000000000000000001101 %
1d
#443
0d
#444
b1110 $
b00000000000000000000000000001100 %
1d
#445
0d
#446
b1100 $
b00000000000000000000000000001011 %
1d
#447
0d
#448
b1000 $
b00000000000000000000000000001010 %
1d
#449
0d
#450
b0001 $
b00000000000000000000000000001001 %
1d
#451
0d
#452
b0010 $
b00000000000000000000000000001000 %
1d
#453
0d
#454
b0100 $
b00000000000000000000000000000111 %
1d
#455
0d
#456
b1001 $
b00000000000000000000000000000110 %
1d
#457
0d
#458
b0011 $
b00000000000000000000000000000101 %
1d
#459
0d
#460
b0110 $
b00000000000000000000000000000100 %
1d
#461
0d
#462
b1101 $
b00000000000000000000000000000011 %
1d
#463
0d
#464
b1010 $
b00000000000000000000000000000010 %
1d
#465
0d
#466
b0101 $
b00000000000000000000000000000001 %
1d
#467
0d
#468
b1011 $
b00000000000000000000000000000000 %
1d
#469
0d
