Full_Instruction/tb/tests_old/L1Cache.vcd
$version Generated by VerilatedVcd $end
$timescale 1ps $end
 $scope module TOP $end
  $var wire 1 & clk $end
  $var wire 1 ' rst_n $end
  $var wire 1 ( load $end
  $var wire 1 ) store $end
  $var wire 32 * address [31:0] $end
  $var wire 32 + data_in [31:0] $end
  $var wire 32 , mem_data [31:0] $end
  $var wire 1 - mem_ready $end
  $var wire 1 . hit $end
  $var wire 1 / miss $end
  $var wire 1 0 mem_write $end
  $var wire 1 1 mem_read $end
  $var wire 1 2 busy $end
  $var wire 32 3 data_out [31:0] $end
  $var wire 32 4 mem_write_data [31:0] $end
  $scope module L1Cache $end
   $var wire 32 9 DATA_WIDTH [31:0] $end
   $var wire 32 : SET_WIDTH [31:0] $end
   $var wire 32 ; TAG_WIDTH [31:0] $end
   $var wire 1 & clk $end
   $var wire 1 ' rst_n $end
   $var wire 1 ( load $end
   $var wire 1 ) store $end
   $var wire 32 * address [31:0] $end
   $var wire 32 + data_in [31:0] $end
   $var wire 32 , mem_data [31:0] $end
   $var wire 1 - mem_ready $end
   $var wire 1 . hit $end
   $var wire 1 / miss $end
   $var wire 1 0 mem_write $end
   $var wire 1 1 mem_read $end
   $var wire 1 2 busy $end
   $var wire 32 3 data_out [31:0] $end
   $var wire 32 4 mem_write_data [31:0] $end
   $var wire 3 # state [2:0] $end
   $var wire 32 $ lru [31:0] $end
   $var wire 25 5 tag [24:0] $end
   $var wire 5 6 index [4:0] $end
   $var wire 1 7 way $end
   $var wire 1 8 hit_way $end
   $scope module unnamedblk1 $end
    $var wire 32 % i [31:0] $end
   $upscope $end
  $upscope $end
 $upscope $end
$enddefinitions $end


#1
b000 #
b00000000000000000000000000000000 $
b00000000000000000000000000100000 %
1&
0'
0(
0)
b00000000000000000000000000000000 *
b00000000000000000000000000000000 +
b00000000000000000000000000000000 ,
0-
0.
0/
00
01
02
b00000000000000000000000000000000 3
b00000000000000000000000000000000 4
b0000000000000000000000000 5
b00000 6
07
08
b00000000000000000000000000100000 9
b00000000000000000000000000000101 :
b00000000000000000000000000011001 ;
#2
0&
#3
1&
#4
0&
#5
1&
#6
0&
#7
1&
#8
0&
#9
1&
#10
0&
#11
1&
1'
#12
0&
#13
b010 #
1&
1)
b00000000000000000010000000000000 *
b11011110101011010000000000000000 +
1/
12
b0000000000000000001000000 5
#14
0&
#15
b100 #
1&
#16
0&
#17
b000 #
b00000000000000000000000000000001 $
1&
1.
0/
02
b11011110101011010000000000000000 3
17
#18
0&
#19
1&
0)
#20
0&
#21
1&
1(
#22
0&
#23
1&
0(
#24
0&
#25
1&
1)
b00100001010100101111111111111111 +
b00100001010100101111111111111111 3
#26
0&
#27
1&
0)
#28
0&
#29
b010 #
1&
1)
b00000000000000010010000000000000 *
b11011110101011010000000000000001 +
0.
1/
12
b00000000000000000000000000000000 3
b0000000000000001001000000 5
#30
0&
#31
b100 #
1&
#32
0&
#33
b000 #
b00000000000000000000000000000000 $
1&
1.
0/
02
b11011110101011010000000000000001 3
b00100001010100101111111111111111 4
07
18
#34
0&
#35
1&
0)
#36
0&
#37
1&
1(
#38
0&
#39
1&
0(
#40
0&
#41
1&
1)
b00100001010100101111111111111110 +
b00100001010100101111111111111110 3
#42
0&
#43
1&
0)
#44
0&
#45
b011 #
1&
1)
b00000000000000100010000000000000 *
b11011110101011010000000000000010 +
0.
1/
10
12
b00000000000000000000000000000000 3
b0000000000000010001000000 5
08
#46
0&
#47
1&
#48
0&
#49
1&
#50
0&
b11011110101011010000000000000000 ,
1-
b11011110101011010000000000000000 3
#51
1&
0-
#52
0&
#53
1&
#54
0&
#55
b010 #
1&
b11011110101011010000000000000001 ,
1-
00
b11011110101011010000000000000001 3
#56
0&
#57
b100 #
1&
#58
0&
#59
b000 #
b00000000000000000000000000000001 $
1&
1.
0/
02
b11011110101011010000000000000010 3
b00100001010100101111111111111110 4
17
#60
0&
#61
1&
0)
#62
0&
#63
1&
1(
#64
0&
#65
1&
0(
#66
0&
#67
1&
1)
b00100001010100101111111111111101 +
b00100001010100101111111111111101 3
#68
0&
#69
1&
0)
#70
0&
#71
b011 #
1&
1)
b00000000000000110010000000000000 *
b11011110101011011011111011101111 +
0.
1/
10
12
b11011110101011010000000000000001 3
b0000000000000011001000000 5
#72
0&
0-
#73
1&
#74
0&
#75
1&
#76
0&
b11011110101011010000000000000010 ,
1-
b11011110101011010000000000000010 3
#77
1&
0-
#78
0&
#79
1&
#80
0&
#81
b010 #
1&
1-
00
#82
0&
#83
b100 #
1&
#84
0&
#85
b000 #
b00000000000000000000000000000000 $
1&
1.
0/
02
b11011110101011011011111011101111 3
b00100001010100101111111111111101 4
07
18
#86
0&
#87
1&
0)
